"tract","method","cor","p","p_adjusted","GAB_correlation"
"AF_left","Spearman",0.18,0.00629,0.010064,"rho=0.18, p=1.01e-02*"
"AF_right","Spearman",0.19,0.00484,0.00860444444444444,"rho=0.19, p=8.60e-03*"
"ATR_left","Spearman",-0.025,0.714,0.714,"rho=-0.025, p=7.14e-01"
"ATR_right","Spearman",-0.19,0.00466,0.00860444444444444,"rho=-0.19, p=8.60e-03*"
"CC_genu","Spearman",0.44,5.84e-12,9.344e-11,"rho=0.44, p=9.34e-11*"
"CC_splenium","Spearman",0.36,4.58e-08,3.664e-07,"rho=0.36, p=3.66e-07*"
"CCG_left","Spearman",-0.049,0.466,0.532571428571429,"rho=-0.049, p=5.33e-01"
"CCG_right","Spearman",-0.029,0.672,0.714,"rho=-0.029, p=7.14e-01"
"CST_left","Spearman",-0.16,0.0213,0.0309818181818182,"rho=-0.16, p=3.10e-02*"
"CST_right","Spearman",-0.059,0.384,0.472615384615385,"rho=-0.059, p=4.73e-01"
"IFOF_left","Spearman",0.12,0.0746,0.0994666666666667,"rho=0.12, p=9.95e-02"
"IFOF_right","Spearman",0.19,0.00418,0.00860444444444444,"rho=0.19, p=8.60e-03*"
"ILF_left","Spearman",0.26,9.13e-05,0.000243466666666667,"rho=0.26, p=2.43e-04*"
"ILF_right","Spearman",0.26,8.29e-05,0.000243466666666667,"rho=0.26, p=2.43e-04*"
"UNC_left","Spearman",0.3,6.24e-06,2.496e-05,"rho=0.3, p=2.50e-05*"
"UNC_right","Spearman",0.33,4.32e-07,2.304e-06,"rho=0.33, p=2.30e-06*"
