"tract","mean_range_term","mean_range_preterm","group_comparison","GAB_correlation"
"AF_left","0.052 [0.028, 0.09]","0.045 [0.025, 0.124]","u=5801, p=7.90e-01","rho=0.037, p=7.14e-01"
"AF_right","0.067 [0.038, 0.101]","0.054 [0.028, 0.124]","u=7202, p=5.02e-03*","rho=0.21, p=1.19e-02*"
"ATR_left","0.145 [0.103, 0.183]","0.137 [0.088, 0.214]","t=-1.447, p=3.43e-01","rho=-0.1, p=3.76e-01"
"ATR_right","0.144 [0.105, 0.179]","0.139 [0.092, 0.192]","t=-2.929, p=2.06e-02*","rho=-0.24, p=3.96e-03*"
"CC_genu","0.126 [0.08, 0.173]","0.122 [0.079, 0.172]","t=-1.032, p=4.86e-01","rho=-0.029, p=7.14e-01"
"CC_splenium","0.176 [0.112, 0.23]","0.164 [0.071, 0.236]","t=1.362, p=3.50e-01","rho=0.18, p=1.90e-02*"
"CCG_left","0.096 [0.063, 0.132]","0.092 [0.057, 0.155]","t=-0.466, p=7.90e-01","rho=-0.084, p=3.84e-01"
"CCG_right","0.086 [0.049, 0.114]","0.081 [0.046, 0.138]","t=-0.389, p=7.98e-01","rho=-0.041, p=7.14e-01"
"CST_left","0.201 [0.154, 0.238]","0.194 [0.131, 0.278]","t=-2.509, p=5.16e-02","rho=-0.19, p=1.90e-02*"
"CST_right","0.199 [0.166, 0.237]","0.195 [0.151, 0.285]","t=-3.058, p=2.02e-02*","rho=-0.23, p=3.96e-03*"
"IFOF_left","0.091 [0.065, 0.132]","0.085 [0.058, 0.166]","u=5038, p=4.28e-01","rho=-0.078, p=4.00e-01"
"IFOF_right","0.102 [0.068, 0.136]","0.095 [0.062, 0.173]","u=5285, p=7.72e-01","rho=-0.033, p=7.14e-01"
"ILF_left","0.089 [0.054, 0.135]","0.084 [0.046, 0.172]","u=5456, p=8.57e-01","rho=0.001, p=9.87e-01"
"ILF_right","0.098 [0.058, 0.143]","0.092 [0.053, 0.173]","u=5622, p=9.09e-01","rho=0.029, p=7.14e-01"
"UNC_left","0.083 [0.051, 0.119]","0.072 [0.043, 0.135]","t=1.669, p=2.59e-01","rho=0.086, p=3.84e-01"
"UNC_right","0.082 [0.052, 0.114]","0.072 [0.049, 0.128]","u=6560, p=9.22e-02","rho=0.085, p=3.84e-01"
