"tract","stat_test","statistic","p","p_adjusted","group_comparison"
"CC_splenium","t-test",-4.37518972723863,2.1e-05,4.2e-05,"t=-4.375, p=4.20e-05*"
"AF_left","Wilcox",3513,5.64e-06,1.76e-05,"u=3513, p=1.76e-05*"
"AF_right","Wilcox",3796,9.06e-05,0.000161066666666667,"u=3796, p=1.61e-04*"
"ATR_left","Wilcox",4901,0.14,0.149333333333333,"u=4901, p=1.49e-01"
"ATR_right","Wilcox",5044,0.246,0.246,"u=5044, p=2.46e-01"
"CC_genu","Wilcox",2012,4.05e-15,6.48e-14,"u=2012, p=6.48e-14*"
"CCG_left","Wilcox",4525,0.0212,0.0242285714285714,"u=4525, p=2.42e-02*"
"CCG_right","Wilcox",3972,0.000422,0.000672,"u=3972, p=6.72e-04*"
"CST_left","Wilcox",4302,0.00515,0.00633846153846154,"u=4302, p=6.34e-03*"
"CST_right","Wilcox",3983,0.000462,0.000672,"u=3983, p=6.72e-04*"
"IFOF_left","Wilcox",2972,9.82e-09,7.856e-08,"u=2972, p=7.86e-08*"
"IFOF_right","Wilcox",3571,1.03e-05,2.35428571428571e-05,"u=3571, p=2.35e-05*"
"ILF_left","Wilcox",3528,6.6e-06,1.76e-05,"u=3528, p=1.76e-05*"
"ILF_right","Wilcox",4032,0.00069,0.00092,"u=4032, p=9.20e-04*"
"UNC_left","Wilcox",3394,1.57e-06,6.28e-06,"u=3394, p=6.28e-06*"
"UNC_right","Wilcox",3181,1.35e-07,7.2e-07,"u=3181, p=7.20e-07*"
