"preterm","tract","mean","median","sd","min","max","range","mean_range"
0,"AF_left",0.0855873035873436,0.075522623258621,0.0467798103929649,0.0276679306608884,0.27573104434907,"[0.028, 0.276]","0.086 [0.028, 0.276]"
0,"AF_right",0.0676942576906074,0.0573359811977335,0.0431590431303077,0.022848200312989,0.231255402666969,"[0.023, 0.231]","0.068 [0.023, 0.231]"
0,"ATR_left",0.0281715869565572,0.0246608426574086,0.0154861900552162,0.00572269457161544,0.0830941838854269,"[0.006, 0.083]","0.028 [0.006, 0.083]"
0,"ATR_right",0.0296114920537716,0.027267806726254,0.016809948340711,0.00564497288013588,0.0987262028383524,"[0.006, 0.099]","0.03 [0.006, 0.099]"
0,"CC_genu",0.157166294495856,0.157594110583198,0.0425886226403233,0.0793084363822599,0.313877872749218,"[0.079, 0.314]","0.157 [0.079, 0.314]"
0,"CC_splenium",0.190946381517927,0.188570074808423,0.0354398416775814,0.118678899647481,0.313833982502761,"[0.119, 0.314]","0.191 [0.119, 0.314]"
0,"CCG_left",0.0472682728313472,0.0450465400455595,0.0164209861691236,0.0195117657414471,0.104893892459198,"[0.02, 0.105]","0.047 [0.02, 0.105]"
0,"CCG_right",0.038656938000008,0.0357979228889492,0.0138768723842245,0.0118587667775867,0.0848859330534723,"[0.012, 0.085]","0.039 [0.012, 0.085]"
0,"CST_left",0.0897548298514384,0.0890970238310491,0.018679461799449,0.0449704437183548,0.16065104829227,"[0.045, 0.161]","0.09 [0.045, 0.161]"
0,"CST_right",0.0875387952465699,0.0888208897115575,0.0164800937817447,0.0526570458959152,0.142817434810555,"[0.053, 0.143]","0.088 [0.053, 0.143]"
0,"IFOF_left",0.085700533985334,0.0807570471951562,0.0302740384481529,0.0335108248573159,0.216069132325026,"[0.034, 0.216]","0.086 [0.034, 0.216]"
0,"IFOF_right",0.0978637792732671,0.0939498324324829,0.032339238957836,0.0434215464888047,0.19465270408962,"[0.043, 0.195]","0.098 [0.043, 0.195]"
0,"ILF_left",0.124872966473187,0.12208202440252,0.0427359861019216,0.0570072289574854,0.262023451354761,"[0.057, 0.262]","0.125 [0.057, 0.262]"
0,"ILF_right",0.127693633270008,0.121945144920768,0.0395236494193411,0.0615434965558084,0.238892705828467,"[0.062, 0.239]","0.128 [0.062, 0.239]"
0,"UNC_left",0.0374748162190186,0.0350311509454585,0.021163223789823,0.00812343928230108,0.126084813679902,"[0.008, 0.126]","0.037 [0.008, 0.126]"
0,"UNC_right",0.0418270315381298,0.0365095874336614,0.0215889993533147,0.0117538278299299,0.109970583360955,"[0.012, 0.11]","0.042 [0.012, 0.11]"
1,"AF_left",0.130767337425141,0.120996004375098,0.0585856892722764,0.0342512751309439,0.353897311615848,"[0.034, 0.354]","0.131 [0.034, 0.354]"
1,"AF_right",0.0974828318689101,0.090614998404058,0.0467818715292733,0.0275590261151424,0.283759808086361,"[0.028, 0.284]","0.097 [0.028, 0.284]"
1,"ATR_left",0.0374662124207793,0.0360746029052846,0.0170910519700137,0.00988561420791944,0.100015087760473,"[0.01, 0.1]","0.037 [0.01, 0.1]"
1,"ATR_right",0.0341947829604725,0.033640889941158,0.0148233800895598,0.0048451056978443,0.0806718173750926,"[0.005, 0.081]","0.034 [0.005, 0.081]"
1,"CC_genu",0.234906317136347,0.233955736319459,0.0507209319744113,0.0930060225542636,0.39586547824133,"[0.093, 0.396]","0.235 [0.093, 0.396]"
1,"CC_splenium",0.225483328002755,0.22758324511116,0.0400856499308422,0.130696290940165,0.320550380196847,"[0.131, 0.321]","0.225 [0.131, 0.321]"
1,"CCG_left",0.0542424009873558,0.053685748026602,0.0180446510629812,0.0223719922751709,0.126084140572201,"[0.022, 0.126]","0.054 [0.022, 0.126]"
1,"CCG_right",0.0486092603806444,0.045599415431974,0.0172904784286524,0.0173073419566406,0.132444205752476,"[0.017, 0.132]","0.049 [0.017, 0.132]"
1,"CST_left",0.100764888706752,0.0983360369486219,0.0240099766377338,0.0498967056188989,0.215771935254025,"[0.05, 0.216]","0.101 [0.05, 0.216]"
1,"CST_right",0.0988261738274736,0.0976634268298833,0.0220453698457452,0.0353404156327543,0.204222934788979,"[0.035, 0.204]","0.099 [0.035, 0.204]"
1,"IFOF_left",0.128038164779303,0.125043223394971,0.0379537543720501,0.0364900428139361,0.261616200283275,"[0.036, 0.262]","0.128 [0.036, 0.262]"
1,"IFOF_right",0.133879030712345,0.12990629048268,0.0394213556703146,0.0517655321094924,0.244313961023566,"[0.052, 0.244]","0.134 [0.052, 0.244]"
1,"ILF_left",0.178756109999239,0.172372259185212,0.0574323627261683,0.0424673365849836,0.342546824596354,"[0.042, 0.343]","0.179 [0.042, 0.343]"
1,"ILF_right",0.167865781449044,0.157288269797777,0.0535948163936177,0.0565828571428571,0.350660764273159,"[0.057, 0.351]","0.168 [0.057, 0.351]"
1,"UNC_left",0.0628869023858694,0.0612193531410528,0.0246743852003052,0.0127172388304172,0.127986976059589,"[0.013, 0.128]","0.063 [0.013, 0.128]"
1,"UNC_right",0.0697474160762224,0.0669695532790049,0.0260674102902183,0.0207164995589651,0.160248393007766,"[0.021, 0.16]","0.07 [0.021, 0.16]"
