"tract","method","cor","p","p_adjusted","GAB_correlation"
"AF_left","Spearman",-0.28,2.46e-05,0.0001312,"rho=-0.28, p=1.31e-04*"
"AF_right","Spearman",-0.25,0.000212,0.000484571428571429,"rho=-0.25, p=4.85e-04*"
"ATR_left","Spearman",-0.11,0.107,0.114133333333333,"rho=-0.11, p=1.14e-01"
"ATR_right","Spearman",-0.05,0.463,0.463,"rho=-0.05, p=4.63e-01"
"CC_genu","Spearman",-0.5,3.44e-15,5.504e-14,"rho=-0.5, p=5.50e-14*"
"CC_splenium","Spearman",-0.22,0.00088,0.00156444444444444,"rho=-0.22, p=1.56e-03*"
"CCG_left","Spearman",-0.11,0.0925,0.105714285714286,"rho=-0.11, p=1.06e-01"
"CCG_right","Spearman",-0.21,0.00219,0.00318545454545455,"rho=-0.21, p=3.19e-03*"
"CST_left","Spearman",-0.14,0.0344,0.0423384615384615,"rho=-0.14, p=4.23e-02*"
"CST_right","Spearman",-0.18,0.00819,0.01092,"rho=-0.18, p=1.09e-02*"
"IFOF_left","Spearman",-0.38,4.99e-09,3.992e-08,"rho=-0.38, p=3.99e-08*"
"IFOF_right","Spearman",-0.27,3.92e-05,0.0001568,"rho=-0.27, p=1.57e-04*"
"ILF_left","Spearman",-0.27,5e-05,0.00016,"rho=-0.27, p=1.60e-04*"
"ILF_right","Spearman",-0.21,0.00148,0.002368,"rho=-0.21, p=2.37e-03*"
"UNC_left","Spearman",-0.23,0.000665,0.00133,"rho=-0.23, p=1.33e-03*"
"UNC_right","Spearman",-0.25,0.000181,0.000482666666666667,"rho=-0.25, p=4.83e-04*"
