"tract","stat_test","statistic","p","p_adjusted","group_comparison"
"AF_left","t-test",-3.70168742519205,0.000288,0.0009216,"t=-3.702, p=9.22e-04*"
"ATR_left","t-test",0.473920580621025,0.636,0.636,"t=0.474, p=6.36e-01"
"ATR_right","t-test",1.00718330696693,0.315,0.336,"t=1.007, p=3.36e-01"
"CC_splenium","t-test",-2.35543701679696,0.0196,0.03136,"t=-2.355, p=3.14e-02*"
"IFOF_right","t-test",-3.55183988155598,0.000496,0.00132266666666667,"t=-3.552, p=1.32e-03*"
"ILF_left","t-test",-4.58945633812929,7.98e-06,4.256e-05,"t=-4.589, p=4.26e-05*"
"ILF_right","t-test",-3.25282239863143,0.00136,0.00310857142857143,"t=-3.253, p=3.11e-03*"
"UNC_left","t-test",-2.36768603971153,0.019,0.03136,"t=-2.368, p=3.14e-02*"
"UNC_right","t-test",-2.81688379556904,0.00543,0.01086,"t=-2.817, p=1.09e-02*"
"AF_right","Wilcox",3620,1.68e-05,6.72e-05,"u=3620, p=6.72e-05*"
"CC_genu","Wilcox",2114,2.38e-14,3.808e-13,"u=2114, p=3.81e-13*"
"CCG_left","Wilcox",4740,0.0672,0.0827076923076923,"u=4740, p=8.27e-02"
"CCG_right","Wilcox",4576,0.0284,0.0413090909090909,"u=4576, p=4.13e-02*"
"CST_left","Wilcox",4967,0.184,0.210285714285714,"u=4967, p=2.10e-01"
"CST_right","Wilcox",4630,0.0382,0.0509333333333333,"u=4630, p=5.09e-02"
"IFOF_left","Wilcox",3256,3.28e-07,2.624e-06,"u=3256, p=2.62e-06*"
