"preterm","tract","mean","median","sd","min","max","range","mean_range"
0,"AF_left",0.241629656628245,0.251459396350428,0.0465085101718284,0.113770412430125,0.347365097302777,"[0.114, 0.347]","0.242 [0.114, 0.347]"
0,"AF_right",0.188701013909145,0.191961767471012,0.0465372678682669,0.0917203902456667,0.294463481824901,"[0.092, 0.294]","0.189 [0.092, 0.294]"
0,"ATR_left",0.129057056570493,0.131073470523994,0.0119923003911351,0.102163966860393,0.156326849165795,"[0.102, 0.156]","0.129 [0.102, 0.156]"
0,"ATR_right",0.135960124978993,0.134100849924662,0.0143561488179899,0.104043634626359,0.186429784137764,"[0.104, 0.186]","0.136 [0.104, 0.186]"
0,"CC_genu",0.149117575877434,0.150409497059438,0.0231476983197181,0.0791072023146607,0.193877551020408,"[0.079, 0.194]","0.149 [0.079, 0.194]"
0,"CC_splenium",0.120324064430662,0.117266548235112,0.0244789019957917,0.0742685522206973,0.196464661475361,"[0.074, 0.196]","0.12 [0.074, 0.196]"
0,"CCG_left",0.152461975194199,0.149011461318052,0.0343915859046369,0.0862576959959974,0.229442779531723,"[0.086, 0.229]","0.152 [0.086, 0.229]"
0,"CCG_right",0.179157561642009,0.175525319892059,0.036521718955424,0.0957508315875626,0.271603352768431,"[0.096, 0.272]","0.179 [0.096, 0.272]"
0,"CST_left",0.0949728653664645,0.0943526989030137,0.0109909288981055,0.0743610922164998,0.134938575648368,"[0.074, 0.135]","0.095 [0.074, 0.135]"
0,"CST_right",0.0990457499184945,0.0980780345860766,0.0102415178201982,0.0803643878689522,0.125706016125698,"[0.08, 0.126]","0.099 [0.08, 0.126]"
0,"IFOF_left",0.151802244425206,0.155374050144256,0.0302229644822799,0.0875490318162007,0.206168301233376,"[0.088, 0.206]","0.152 [0.088, 0.206]"
0,"IFOF_right",0.139193945551384,0.1369962269486,0.0278124063257506,0.0824744805350627,0.2009364852782,"[0.082, 0.201]","0.139 [0.082, 0.201]"
0,"ILF_left",0.16831237677358,0.169913800514227,0.048516082966041,0.082216309724934,0.278437732505162,"[0.082, 0.278]","0.168 [0.082, 0.278]"
0,"ILF_right",0.1478055070189,0.145348545846349,0.0413178118118408,0.0729530852446413,0.250134748189321,"[0.073, 0.25]","0.148 [0.073, 0.25]"
0,"UNC_left",0.172252122701256,0.174379224372739,0.0281545011499729,0.108049513322898,0.221178503735088,"[0.108, 0.221]","0.172 [0.108, 0.221]"
0,"UNC_right",0.178123368049876,0.183046198820805,0.0286837198172097,0.111393708178157,0.25795653260055,"[0.111, 0.258]","0.178 [0.111, 0.258]"
1,"AF_left",0.23249552919907,0.23261196715412,0.0451124268989342,0.0651944209636517,0.328408564687204,"[0.065, 0.328]","0.232 [0.065, 0.328]"
1,"AF_right",0.225949605549806,0.225860176388205,0.0501196469649879,0.0869571623264209,0.341483777117197,"[0.087, 0.341]","0.226 [0.087, 0.341]"
1,"ATR_left",0.129380153438134,0.129106655744745,0.0152784493163804,0.0917544242125518,0.192091604263243,"[0.092, 0.192]","0.129 [0.092, 0.192]"
1,"ATR_right",0.134873119529139,0.134645519967262,0.0171320692847571,0.0963117616926158,0.206893467306718,"[0.096, 0.207]","0.135 [0.096, 0.207]"
1,"CC_genu",0.150726252430989,0.150385254158839,0.0302049967954001,0.0838215412347905,0.244684519020802,"[0.084, 0.245]","0.151 [0.084, 0.245]"
1,"CC_splenium",0.138604311134036,0.136550339557704,0.0234369408560891,0.0829667437025404,0.253057628524046,"[0.083, 0.253]","0.139 [0.083, 0.253]"
1,"CCG_left",0.160744189372757,0.157644494728294,0.0348105506956398,0.077463722223752,0.247059063663022,"[0.077, 0.247]","0.161 [0.077, 0.247]"
1,"CCG_right",0.196288063786363,0.194820368724374,0.0388444230529364,0.110834381081276,0.282260636128353,"[0.111, 0.282]","0.196 [0.111, 0.282]"
1,"CST_left",0.107785009104129,0.103069046182819,0.0180097927215644,0.0728434504792332,0.166666666666667,"[0.073, 0.167]","0.108 [0.073, 0.167]"
1,"CST_right",0.109603098842329,0.107011324395305,0.0152174340206868,0.0789494221396088,0.152719043094131,"[0.079, 0.153]","0.11 [0.079, 0.153]"
1,"IFOF_left",0.163699007659621,0.162251222637759,0.0277361552955361,0.072930484603878,0.227681957919112,"[0.073, 0.228]","0.164 [0.073, 0.228]"
1,"IFOF_right",0.151680596968307,0.150099442726897,0.024404721110385,0.0857547888899179,0.2197053271555,"[0.086, 0.22]","0.152 [0.086, 0.22]"
1,"ILF_left",0.188040450787575,0.184947091397555,0.0408160611110284,0.0622874696385198,0.307708138447147,"[0.062, 0.308]","0.188 [0.062, 0.308]"
1,"ILF_right",0.166325539545137,0.163048334594659,0.0372988448489662,0.0619067856636917,0.266658083279056,"[0.062, 0.267]","0.166 [0.062, 0.267]"
1,"UNC_left",0.192027693389915,0.186785692597316,0.029860053007247,0.110146071851559,0.291172510367857,"[0.11, 0.291]","0.192 [0.11, 0.291]"
1,"UNC_right",0.2001710885782,0.199097595200077,0.0232643729907682,0.11730717875264,0.26560661988399,"[0.117, 0.266]","0.2 [0.117, 0.266]"
