"Latent_Factor","Indicator","est","se","z","pvalue","std.all"
"gfactor","AF_left",0.851474681190966,0.0541683579862035,15.7190417588038,0,0.853416450919846
"gfactor","AF_right",0.670614176082121,0.060092124243372,11.1597681813701,0,0.672143506779515
"gfactor","ATR_left",0.721189512652723,0.0585724215851789,12.3127829298287,0,0.722834290555742
"gfactor","ATR_right",0.465817289412033,0.0645927585101529,7.21160235537571,5.52891066263328e-13,0.466879896092422
"gfactor","CC_genu",0.755574559218211,0.0575128400255328,13.1374934515975,0,0.757297492456259
"gfactor","CCG_left",0.533317600130702,0.0632810653047092,8.42775951325543,0,0.534533647028532
"gfactor","CCG_right",0.568961378323666,0.0625181587461273,9.10073792534574,0,0.57025872618717
"gfactor","CC_splenium",0.509947918176996,0.0645385832733688,7.90144270779835,2.66453525910038e-15,0.508353154919742
"gfactor","CST_left",0.731392026532564,0.0582721474741247,12.551314105205,0,0.733059894276249
"gfactor","CST_right",0.734863736283967,0.0581651093374505,12.6340987690848,0,0.736539567267425
"gfactor","IFOF_left",0.944184570912171,0.0502849789693311,18.7766722839445,0,0.947618499604697
"gfactor","IFOF_right",0.92776919727425,0.050953378686592,18.2081977915703,0,0.931794160095359
"gfactor","ILF_left",0.88520813568025,0.0525623130973922,16.8411183510904,0,0.891373296648255
"gfactor","ILF_right",0.870483700233848,0.0533926511875177,16.3034365380484,0,0.873788227240338
"gfactor","UNC_left",0.87954286109589,0.0533458854050856,16.4875482788789,0,0.880767542817631
"gfactor","UNC_right",0.878423840751515,0.0530986777014377,16.5432338200718,0,0.88200203658143
