"Latent_Factor","Indicator","est","se","z","pvalue","std.all"
"gfactor","AF_left",0.823647716684479,0.0552495469855848,14.9077732148533,0,0.825525609827814
"gfactor","AF_right",0.739370873499371,0.0581189973388443,12.7216729013528,0,0.74105746619295
"gfactor","ATR_left",0.888950656234057,0.0527335960297875,16.8573873803698,0,0.890977969995175
"gfactor","ATR_right",0.825153474186574,0.0552490750427832,14.9351545441729,0,0.827035279693337
"gfactor","CC_genu",0.705911159907803,0.0590808526161407,11.9482222860635,0,0.707520983686605
"gfactor","CCG_left",0.75824717773413,0.0574847380468215,13.1904085066289,0,0.759976879434342
"gfactor","CCG_right",0.751598538859329,0.0576994883440184,13.0260867198356,0,0.7533120927585
"gfactor","CC_splenium",0.41274913694607,0.0662424126487288,6.23088925119321,4.63795002403344e-10,0.412273710088212
"gfactor","CST_left",0.806266729878272,0.0558719264499651,14.430623411568,0,0.808105087254213
"gfactor","CST_right",0.783043869092959,0.0566811179786065,13.814898100431,0,0.7848298635025
"gfactor","IFOF_left",0.879335404537244,0.0535512822311115,16.4204360362893,0,0.878894118071734
"gfactor","IFOF_right",0.794374612434394,0.0569309940041743,13.9532890006478,0,0.791437412137056
"gfactor","ILF_left",0.609835462731777,0.0606678706923773,10.0520334037107,0,0.622823375089242
"gfactor","ILF_right",0.621519736949726,0.0596414011781564,10.4209445900369,0,0.638531678184944
"gfactor","UNC_left",0.909080656294263,0.0519077323592513,17.5133956922362,0,0.912172689482288
"gfactor","UNC_right",0.876056304059979,0.0533053929879626,16.4346655179488,0,0.878321901196775
