"Component","eigenvalue","variance.percent","cumulative.variance.percent"
"Dim.1",9.5639338002131,59.7745862513318,59.7745862513318
"Dim.2",1.548223152962,9.67639470601251,69.4509809573444
"Dim.3",0.940971309833902,5.88107068646189,75.3320516438062
"Dim.4",0.84750053353437,5.29687833458981,80.628929978396
"Dim.5",0.619377172651689,3.87110732907305,84.5000373074691
"Dim.6",0.53672911906986,3.35455699418662,87.8545943016557
"Dim.7",0.465414429917059,2.90884018698162,90.7634344886373
"Dim.8",0.305420537360697,1.90887835850435,92.6723128471417
"Dim.9",0.259302194387601,1.6206387149225,94.2929515620642
"Dim.10",0.213556112255021,1.33472570159388,95.6276772636581
"Dim.11",0.191168234642069,1.19480146651293,96.822478730171
"Dim.12",0.171815736655218,1.07384835409511,97.8963270842661
"Dim.13",0.168705474412073,1.05440921507546,98.9507362993416
"Dim.14",0.0918724459184315,0.574202786990197,99.5249390863318
"Dim.15",0.0472436607683202,0.295272879802001,99.8202119661338
"Dim.16",0.0287660854185941,0.179788033866213,100
