"record_id","Dim.1","Dim.2","Dim.3","Dim.4","Dim.5","Dim.6","Dim.7","Dim.8","Dim.9","Dim.10","Dim.11","Dim.12","Dim.13","Dim.14","Dim.15","Dim.16"
"8018",0.855839302361546,0.927503212292415,-1.3939091358169,-0.814415772453488,0.0084533806372987,0.52188658561357,0.13766649232534,0.903107950667926,-0.0165957727228085,-0.0514754229413105,-0.658069763552369,-0.332479398014763,0.170531110126997,-0.798213153192296,-0.237895412465775,-0.122256623504525
"8021",-1.15125482244881,-0.227284561811623,1.52344677492096,0.126695556217791,0.886238397154068,-0.330971142249973,-0.402266844025634,0.506148377960497,-0.353667407604615,-0.53166262365617,0.214204632109925,0.358728420558461,0.514762953571319,-0.362383639827396,-0.138516740460234,0.10246000014328
"8022",-1.11123666809511,-1.34281230241337,0.336435153486251,-0.121407110974835,-0.331530458931324,0.0236421895119386,-0.0199818952105615,-0.00820411930823377,-0.845887319121322,-1.09439105133272,-0.321304360081807,0.509152824281339,0.0159867457046811,-0.126066616585271,-0.281014151001881,-0.241640733534959
"8024",2.97173707566508,-0.951736066053726,-1.74778906073232,-0.834534678545666,0.217270007500702,0.925099482322049,0.387191588281282,-0.0578420856251971,0.0510830978767158,-0.984000537535661,-0.151801840737811,0.622995671605934,0.351391182805965,-0.204046201562516,0.428993635175034,0.166064275253525
"8027",-2.36261046257967,-2.67612765990023,1.47007972671036,-0.128019199326298,0.324244553113706,-0.552246832884534,-0.385020679590216,0.0672822938569296,-0.0823975095957351,-0.752048631518099,-0.0464164259832728,-0.193380217218382,0.260204219507984,-0.107237569865701,-0.0264222657342945,0.0592922816985038
"8029",1.84717419511823,1.37755796980013,-0.0588255254182636,-1.40635169561252,0.9809417667838,-0.739145575165396,0.497383317185162,-0.864435761240938,-0.400866368293464,0.367890671921116,0.190294855680425,-0.00495709472190245,0.680654372137292,-0.451225595266473,0.375374381045003,0.0112258130819377
"8033",-2.71965922801198,-1.07311266453879,-0.637283738300444,-0.242333420703095,-1.189638047066,-0.58587839700375,0.198561989893637,-1.10607135116303,-0.249557334535494,-0.215488537813638,-0.322043408044871,0.496384850278259,0.236175751077827,-0.181012063426565,0.0611006639077496,-0.00856884478925798
"8034",-0.0478734267526403,-0.422863156217072,0.590586749464185,-1.83918064371393,0.318426559679664,-0.455927275854447,-0.654147470166729,-0.915306091821452,-0.698663225924152,-0.23131191721216,-1.08414553526273,-0.146958247835289,0.149852027952512,0.0141467084143711,-0.00256050282249881,0.0790549088526375
"8035",0.54777430508855,-0.822274512837074,-1.84460815249806,0.983436048102521,-0.150409490185054,-0.820304316279606,-0.859562567310308,0.198461212085403,0.573105179823182,-0.695493336058922,-0.678691474510011,-0.573596167303439,0.168305932020444,-0.255715961431656,0.0134795896114893,0.187926063272163
"8036",0.732000432838334,-1.05631589899949,0.146984269061921,0.343248051523288,0.734611536289854,0.448996837051021,-0.433902553096191,0.301754855002843,0.559480729392929,-0.258599638985898,-0.428874225510115,-0.0753573485553455,-0.200416891755911,0.404234562217182,-0.0129855796577219,0.150772909827036
"8037",9.01363782768492,-1.18032072449383,-0.0979036687884867,-0.332030451852058,-1.42292111629993,-1.65044594413972,-0.50461008356769,0.453993966362626,-0.0226059788305318,0.828812016401431,-0.0118187143087894,0.863499548470986,-0.279210022182258,0.920769873293593,-0.278741794129278,0.058597585413755
"8038",7.59091105961141,-1.40149396277963,-0.473596911519304,0.464250847450503,-0.75686416726443,-1.65355689894772,0.66045859579291,-0.661610607773192,-0.0739449834190079,0.302973306664993,0.6265349634774,-0.0928281047746936,-0.516706368289545,0.0297467292830915,-0.051597367163465,-0.0423496473545807
"8039",-2.37022456722582,1.28144810372435,1.43297645767221,-0.226189714047309,-0.248391502732521,0.0366739411339759,0.0434170038126284,-0.226747452077618,-0.223905686572349,0.232270671879658,0.663920325003625,-0.31241324755887,-0.227834407047615,0.0363323930919608,0.384045345239564,0.150129741275598
"8040",-0.742413983687901,2.00749806687203,-0.595613009271892,0.430388001672628,-0.322558592068292,1.47864822777823,-0.98295463867654,-0.21033390013759,0.0196328037240838,-0.139131771907964,0.12318089592444,0.0818741924289534,0.505488924504484,0.0220217968499812,0.262745236752561,0.117654703628518
"8041",-4.16691234486513,-0.819298555136678,0.219892754113783,0.252947583733414,0.337423148244312,0.35946430695912,0.176927254397154,0.393119207129849,0.0653740122769871,-0.024697894969672,0.203352326492897,-0.189591878121797,-0.281020726889507,-0.0210304936541981,0.00403430358157356,0.0447416552444138
"8042",-0.408733594984399,-0.299762249031526,-0.215512112063199,-0.171726992204771,-0.551021233277512,-0.955378394137639,-0.126086708300276,1.19497207393209,-0.300058862283194,-0.334213435399205,-0.345116694889173,0.367801065564949,-0.35507421626463,0.0586635322971458,0.134645662198297,0.0451943636613194
"8043",-2.37946358481508,-1.01253459166011,-1.27395343993253,-0.0597087510711523,0.340049360692584,0.421488458158883,-0.263873957223871,-0.560811334885366,0.222050686474846,-0.360897026043678,-0.0641051142746508,0.0191268271202122,0.232459072535853,-0.00275808340855141,0.00262617744380298,0.0137098853485788
"8046",-0.247992666418175,-0.087741460832427,-1.57540093730812,-0.484631565995875,-0.54355692529421,0.107819023872119,0.665741878298715,0.251718451874512,-0.799325321916212,-0.437782408922547,-0.116557502829934,0.831897805101307,0.353246143061883,-0.0634457263389769,0.0822472427549788,-0.0594074871083231
"8048",3.46723529510136,0.773334714255569,-3.38281621520624,0.189685763066578,0.628262903296517,-0.45637168275009,1.82265874650214,-0.326612192644414,-0.413898242143116,-0.248456372404281,0.437936813328156,0.955784637768509,0.696579377142004,0.436163399843698,0.0770525868040026,0.382160381833372
"8049",7.13610847934891,2.86930515895354,-0.204997644521832,-0.702389494082268,0.567159381910735,0.891299712128837,-0.92278086802252,-0.557537023320764,0.371871201195395,0.349652578350778,0.22857834047627,0.666605480846476,-0.291516949814462,0.506260350982393,-0.342543111215765,-0.109773835801231
"8052",-1.24798530478833,-0.756033847370879,-0.0747288296096026,-0.302053404682079,-0.79167120573609,-0.937404803813348,-0.553027821056756,0.363390222312654,-0.329434817343689,0.290554981391928,-0.0598025251673081,0.202450200070915,0.0713301370847925,-0.442528865794241,-0.321569912976918,0.123018669571492
"8053",0.105255049821762,0.568232480271962,1.43215042109425,0.7219047212568,-1.84830791061705,1.19263706525538,0.397611712745403,-0.438805098295653,-0.557302706595703,0.641121379885173,-0.131376232885396,-0.424630629419694,-0.463619167121231,0.0105337080885012,0.182284999869584,0.0152998006591312
"8055",-2.81627075121399,-0.515047898584124,0.692166346344464,0.0637439022214502,0.0246833235949479,-0.82652540165357,-0.325194289372164,0.485660642700325,-0.0191736879634734,0.459376199453036,0.41666899207181,0.0560032509130178,0.0345227909547091,0.034746646382504,0.0853738121076227,-0.0115802472511696
"8059",12.6048838346813,-1.01396450564297,2.41948509419049,0.400007003366398,0.274149176375723,-0.955000275748414,-0.768161954554723,-0.974904652227379,1.55971302210266,-0.0504534720158286,-0.82768398189588,-0.592175834339554,-0.55726304021859,-0.52358974263912,0.0747130039418235,0.0482739696234205
"8060",-0.332868969136328,0.707515924205083,-1.20742367964419,1.2316287189423,1.41650804016109,0.565456442212135,0.512955476248861,-0.0925935699206473,0.0832255227093947,0.864762027544363,-0.533527722295412,-0.129268786192478,-0.859826333752568,-0.00700943691994083,0.17588701017232,-0.130009098713441
"8061",0.203059570121127,2.34312374627219,-0.486354276955737,-0.527230824731118,1.75865151003712,-0.284248175553176,-0.724636422296589,-0.352550833432987,0.877089115684311,0.798423727714269,0.503399846406411,0.205788371624175,-0.285483624204241,-0.0628947683777294,-0.191607392664393,0.162485136090839
"8064",-0.562962719807777,0.851179189272636,-0.635406703051529,-0.712641812403946,-0.905877650361117,0.599147012180303,-0.276131986902272,0.120480173750913,-0.0780426680024722,0.118460426697337,0.233192740021578,-0.513378282842207,0.0986805510641144,-0.25111078269335,0.170368664362625,0.0385468351530978
"8067",-2.81321133374333,-0.0307646658357357,0.546567639733412,-1.13473877426296,2.15609978784499,-0.477884049679286,-0.252199854462082,-0.00170709794177633,-0.686036433479769,-0.246194009249685,-0.838852543270221,0.446971415036492,0.270375754034668,-0.0855907739123858,-0.195829963473361,-0.315853841108639
"8068",-3.56842563380388,-1.45570535642495,-1.05711824203823,-0.663336548307409,-0.527672657390797,-0.631025951457788,-0.214297796849136,-0.113501647083883,0.154338879664833,-0.755607792170276,-0.282300777060433,0.113690193849538,0.202683382031391,-0.308597933136642,-0.348341268539968,0.114937292873481
"8069",1.5200332154256,-1.05746336600244,0.0589168884895785,0.0665017223043228,-0.176143913921372,0.660177062990729,-0.200924767537445,0.211425345310893,-0.281801031154883,-0.678276403664678,0.19902551847545,-0.0847555685728621,-0.16833787722333,-0.260728962061744,-0.0762411700042714,0.0273829298032719
"8070",5.5490989290392,-1.62819787976548,-1.16157834599323,-0.930090113437684,-1.15736334194383,-0.876288285011381,-0.695285014368921,0.875514445780302,0.199001823729793,-0.097465400505057,0.689629080940186,-0.0377539255445336,0.0115636708934359,-0.243776032688345,-0.0965103271275906,0.194824881455319
"8072",1.96696996748421,-0.205335422691462,-0.408312785092966,0.821208755701198,-1.44682018905832,0.361237292838463,1.34646508137498,-0.373905690276369,-0.62552951648622,0.124492226248834,0.354651704461996,-0.207498191201732,-0.974070932121924,-0.144834296975579,-0.0246803838676403,-0.0297858645705779
"8076",5.32773276842253,3.0179476716569,-0.644103352192649,0.311162372293612,0.0300704767098033,-1.65407291190366,0.17558689434799,0.0923850381372394,0.183410232999603,-0.429824098737722,0.408258710169103,-0.305693781099698,0.5314436266054,0.244764877965673,0.346666761035607,-0.187063029035768
"8078",-3.4522392114588,1.51098998528946,-0.444577794244606,0.668419801585449,0.0824351259586965,-0.54026445461565,0.104963093659547,0.298621705586802,0.324127337551672,0.102390050206517,-0.345818112541378,-0.190229965332495,-0.106038585672171,0.0900745961336221,-0.219945398094851,-0.076272290626876
"8079",-1.1573446469705,-0.605986221033101,-0.359773682368803,-1.14840512179994,0.322254391824825,-0.0223541739550181,0.653314493061473,-0.412566622728357,1.2583530919817,0.152271842142213,-0.220242981197615,-0.221116812474736,0.340568218859054,-0.478505500742808,-0.0484970921643491,-0.101233978200387
"8080",3.86985462298704,-2.90990546374515,1.59790084943957,-1.21169890454614,-0.421794377902337,-0.187674073736793,-0.59298762264526,-0.196798154557216,-0.43990774081901,0.00890537627373353,0.255857227016038,-0.219866880724294,0.159012531534815,-0.277016225254859,-0.0820702288365447,0.148252909148658
"8081",-1.35151047688773,-0.751105945998413,1.16477653003319,0.742765451965335,-0.697861547363455,0.605802631997772,-0.139926382249662,0.166230043658563,0.0952713123604237,0.0921865466493793,-0.0978682430298876,0.143344216840941,-0.0301877087079568,0.26412285966623,0.216667558103286,0.161473300458819
"8083",1.51380332851192,-0.897994829052009,0.616082246107574,-0.926756113863647,0.618955807742702,-0.172273804625806,0.271793505318828,0.802618302531431,-0.200762890827114,-0.292846580971246,0.454152877542782,-0.894068139955288,-0.326494506735493,0.166251877445479,-0.164836375204694,0.299452403910683
"8084",2.06885063427871,-0.458261639404453,-0.549158619540402,0.27732632904172,-0.166136569307087,0.4489198739342,0.859627333856479,0.458213937955541,0.646230034720619,-0.0106882860582387,-0.176546845512294,0.627912416252779,-0.688754295582152,-0.0558971990237941,0.022406234730667,0.113976652626227
"8087",-2.1486220993001,-0.659593189927451,1.69561301556651,0.0600924222463123,-0.697327649841015,-0.83655454801524,-0.486416351125242,-0.213370334596278,0.689227893366515,0.392685852628621,-0.144607714219238,0.396855935832462,-0.496452346946918,0.186829514725038,-0.00766844489860852,-0.0920381893633742
"8088",-1.97136630991691,0.567008610419997,0.807805191629338,-0.855130639306819,-1.24430950307788,-0.146617077150166,-0.0886505322170473,-0.0835070812759708,0.398075231130206,0.408865502548373,0.0889398029717232,-0.340197145831556,0.218760642874904,-0.194724150111251,0.363337569697711,-0.0440081579075619
"8089",1.21781524689966,-0.576324588928278,-2.11838872144634,-0.714063667642151,-2.03733961494936,0.181252717791838,0.601539277670138,0.736993205757914,-0.435167792301819,1.30069405008154,-0.655678940688664,-0.0614605906290073,0.369463640284029,-0.274421129640119,0.0848821056726108,0.0859804892665747
"8090",-1.39492580723081,-0.252595416041611,-0.280116965379034,-0.00344683719895215,0.651769619637848,-2.13140367013741,-0.714505650205216,0.78501667517137,0.133082303177891,0.0457730801332408,-0.41766535173368,0.313351402208604,0.361001895310543,0.104680511602379,0.234774449468377,-0.0270704451571572
"8092",-2.70250611550249,-0.894420242352682,-0.584981958004564,-0.380107798071878,-0.260066382623819,-0.757301176412104,-0.829091833263164,0.389686514306629,-0.66524721921861,-0.0805438964005941,-0.28198350447829,0.278187564982159,0.109923157537153,0.0567380495166264,0.0994151216705277,0.131655621956405
"8093",-2.44266888749267,-0.087653471403343,-0.551191501375988,-0.420158644312774,-1.42834774395236,-1.2659780083196,0.218986470243064,-0.171177204030278,0.59213292218551,-0.134609526944267,-0.510546128683456,0.0777737513101133,-0.581928450565134,0.0590843112161629,-0.104793837052602,0.180819208191818
"8094",-1.49480956745982,0.8149783508511,1.97682701371095,-0.387807311163222,-0.438744992014033,-0.230766836279541,0.0286259793835593,0.262200510803119,0.32151229293543,-0.492802385910584,-0.158835973857941,0.295863435865448,-0.342964534965071,0.112545130941741,0.222338632870733,0.0705378372110845
"8095",2.0246259487906,-1.92959564516085,0.107050471706848,0.284613905659534,0.774690463624386,-0.513655796425579,1.62023424252349,-1.06701690323455,-0.278603220987971,0.0812444047075528,-0.174708380202175,0.121299475983695,0.223651224379757,0.219177379954313,0.0133255995985171,-0.240405282087533
"8096",0.703834653522636,-1.23604331923446,0.0248731320843425,0.0651553151876624,0.0290806487059952,0.170592751532437,0.757656940974012,-0.811220608065125,-0.225803296391884,0.489292294759881,-0.57102211923481,0.320222061841561,-0.22207205068982,0.0478603023691967,-0.0102899878705314,-0.113160917814915
"8099",1.44763749950418,-1.04370176662705,-0.146611422117407,-0.97036015654329,1.86821331449588,0.358878153046153,-0.0141750211927218,0.4838139487735,0.496614400605262,0.63297468134931,0.334431877845792,1.3470086661913,0.0870265414210822,0.0036848309512113,0.0317834569454879,-0.216229927666233
"8100",-1.49311273277233,-0.681459057389961,0.573087264755655,-0.334690741286183,-0.176576327723909,-0.432290029722613,-0.27576174779434,0.377177492221287,0.569833047074074,-0.0227146784214311,0.029455875070709,-0.0481874389878556,0.0136598753746008,0.0602981564640253,0.2200939482764,0.0930403519863273
"8101",-6.77979731378758,0.073156153326763,-0.901597209369694,-0.313087892775375,0.112438277428136,0.238230790642656,0.835239884020992,0.14513626907656,-0.00733204551334243,0.176868208511691,0.0224229933445611,-0.301081274135074,-0.233024047428911,-0.218860044419206,0.156636743842125,0.00806740295341224
"8102",-0.53832037064026,-0.190967347827098,0.251208933160003,0.782753290572004,-2.02280225735057,0.590736932317389,-0.375244460777178,0.286617482539981,-0.738418058849868,-0.254118531876427,0.0726805271104955,1.0036964376612,-0.400170547165154,-0.395049133887767,0.167644712430995,0.1915858314567
"8103",-2.85484094394023,-1.70417384270959,-1.37840695172755,1.09288888094637,0.357477286211968,-0.26929264437046,-0.00873074370965721,-0.549401336948203,-0.434346337414151,0.511089755418043,0.16904844469451,-0.60793147309964,0.274607388147554,-0.18719063783511,-0.229419566215424,0.0130453988485637
"8104",-0.866343934421968,-0.689382227632325,-0.0217186598992236,0.148947848451732,-0.649667921114619,0.0194377344915985,0.404298301631269,0.295178628007405,-0.349749043958628,0.192177122801553,0.473953562700558,0.574610848349222,0.715605391553968,0.136028556951519,-0.283177427981904,-0.00690056529700715
"8105",2.44166162835914,0.842415037412314,-1.01076683609889,-0.318171867792823,-0.248925424327672,-0.931869426848439,-0.168401559847982,-0.250162221933677,-0.415561637065192,-0.946455000831109,0.202392581932611,-0.755369294806535,0.539694543174816,0.57463318541976,-0.0556462939021806,-0.171289255676035
"8106",-2.68903449063788,-0.952410131672993,0.423236821874673,1.05963083771912,1.20272210258929,0.401788815064542,-0.0798258248701711,-0.0992026105711475,-0.0445055037939723,-0.360433429748794,0.238792649068106,-0.139840554943956,-0.132030638847756,0.0280927700444258,0.0446201586117364,0.0999755400202337
"8107",-2.04626972237589,4.12724907275487,-0.358909776285136,-0.979998139923029,0.140725809937287,-0.00965070288570719,-0.164883607343061,-0.501527988691223,0.13734644643726,-0.0509419386377965,-0.147709224292019,-0.132082781737311,0.0950979098258253,0.0925683380292456,0.110743217413225,0.138306335959476
"8109",5.2297542774,1.52504324785444,1.5809168477182,5.23009062456845,0.241337737635484,-0.243175995386468,-1.58547053754358,-0.121395139636989,-0.980897616766952,0.696452473622647,-1.92145872764538,0.0984333738120306,0.724663156159565,-0.226426209582245,0.222719885497335,-0.0528955429277229
"8110",-2.25505240849432,-1.38996499726008,-0.247796909409095,-0.813529583375508,-0.285026402879677,0.952047943913259,0.0714540149403406,-0.194758395378337,-0.156912228271924,-0.339465381316712,-0.0426758709374154,0.490868313747514,0.160576325039616,-0.217287473564519,0.266006973891685,0.211123347226491
"8112",5.82859424594402,-0.189074051285982,-1.06863895174999,1.232690119514,-0.172081317007766,0.25148178436903,0.602258219960225,-0.287490319695458,0.137471950931211,-0.362144121714746,0.668277488408209,-0.231614251468216,0.300028264770726,-0.770064277218614,-0.0897521608550045,-0.0184508485575861
"8115",-4.03958060518849,0.873251891292317,1.03465858639416,0.272585656335243,-0.976575411903053,0.813400272514077,-0.0304126355511841,-0.578798361736015,0.830134923303946,-0.41772425763644,-0.137004016463972,-0.518240798177336,-0.0747851185375529,-0.0905836942011294,0.0574303288013128,0.0605959608285475
"8116",1.96712464223299,1.81056877896511,0.671234337573932,-0.47127623608431,-1.76981207649047,-0.887741259699707,-0.144635914773371,-0.207222021710106,0.154098178647739,0.925012773940862,0.357332533390279,0.561000100831913,-0.0328399256015381,-0.381298636805305,0.181302142563674,-0.255972295548641
"8117",1.33783862102196,1.00901459810651,0.337969560959628,-1.69016385429039,-0.103983723344063,1.03856360944964,0.277845669219787,0.289296665353794,-0.703121478390642,0.312958452991395,-1.37245347665831,-0.222513984290828,0.310912312070792,0.405820040798071,-0.0881695758227343,-0.111519556193816
"8118",3.93966698966258,-1.79989321140964,0.8698952734556,-1.30273758164289,-0.0119417993546405,-0.346358667731015,0.218318545123949,0.645465544866897,-0.161104616689584,-0.405781674306432,0.516892595106602,-0.0169347341509926,0.0118812137864252,0.333787579158815,0.000927585268254191,0.323228076143821
"8119",-3.80958936787462,0.287325122319216,-0.505506720638548,0.98855871252644,1.143291746701,0.35551840548053,-0.448506238737557,-0.00285926017630949,-0.845781731426843,0.00434160275097253,-0.535073228208286,-0.111437122986804,-0.340385571034448,-0.215115154895121,-0.262439129501584,0.0902469518958026
"8120",0.945977618039715,-0.0743280909111144,0.240446041055722,-0.0478034807605048,0.736962782663121,-0.364451566077684,0.924583772662389,0.890541239782318,-0.161016911874331,-0.159244762296912,0.0497877742418433,0.210623509920073,0.26274065533,-0.567972456213436,-0.124100646266764,-0.0211528419996327
"8121",-0.2744797339584,-0.686081344148951,0.766618828538196,0.844890475538383,1.08342543454725,0.634527657693908,-0.00753465226667203,-0.059432416358993,-0.632976515875958,-0.180262279925061,-0.366939421708416,0.112725159622585,0.163111564050783,0.00688558392312132,0.0755975163258319,0.118525467325295
"8122",-1.60645105171565,-0.555125989063786,0.419867160866796,0.0563305416756709,0.960863632828864,1.50150508800693,0.306170561898403,0.189896446784264,-1.33449213583706,0.058756368495094,-0.324707126210832,-0.76798944457955,-0.512216196768762,0.102280667214551,0.0570265350272258,0.0247470231465917
"8123",-2.56484293692937,0.650922349862618,1.04638306276598,0.140778148613325,-0.20628846745418,0.654851604830369,-0.441200585458044,-0.472090664627004,0.270620181751795,-0.158401244927244,-0.15925813820796,-0.0131595627993143,0.0378022484511433,0.185156851129299,0.080207613059931,0.084928969471905
"8124",3.44409370174299,1.71484020594062,0.209624616225236,-0.0816515033335981,-1.42007029479079,0.117556232047164,0.701819230029179,-0.253247244193036,-0.226382134056132,-1.29434856185839,0.268211993456552,-0.209635912903614,-0.430700528610683,-0.798545221952807,0.0638255613534984,0.0723420836895785
"8126",-2.48971036731901,0.695912781366398,0.776532951433799,-0.0668676450584664,-0.551446230216737,-0.471371646757843,-0.434887896793663,-0.0513008664685864,-0.44945366763372,0.395180584840574,0.161387342149393,-0.03770581846021,-0.204926160971247,0.0687369826164256,-0.0228275153622638,-0.0191016006996788
"8128",0.828170193828396,-1.81466178559671,-2.40450927156271,-0.541055906429659,-0.356113989269605,-0.216470269458215,0.00793624757461281,0.252579952209305,-0.332447714007849,-0.0962739798983965,-0.912848669849554,0.237800955372733,0.297155181914512,0.603036805113858,0.0975332301357102,-0.12952911766143
"8130",-1.32096901116775,-0.444729479024447,0.177060562343065,1.07787144339007,0.273569117691808,1.13906799642293,-0.530982976374541,0.542560352474329,0.630175061608874,0.266695198668755,0.18410530743455,-0.399597632711896,-0.148824678605536,-0.535329205005828,0.167286397850454,-0.0726979120148617
"8131",-1.52320474589023,0.0856250602637998,-0.60005201302484,0.512584171333549,-0.267302614218822,-0.655348369754561,-0.640060381838189,0.384629642407927,0.255693677707945,-0.0508488263121548,0.444918976763061,0.127405760520378,0.66365400098228,0.0532623029976099,-0.113736066842637,0.33355383972602
"8132",-2.50583784776552,-0.968886410172686,-0.77029435713963,1.85293382777258,-0.35192716019529,-0.0105783193587995,-0.326799915124145,-0.193954608825323,-0.469623668631223,0.0181141419487635,-0.212898509010343,0.257537405205282,-0.64338726499295,0.50261879314075,-0.015369101537843,0.11464333879354
"8134",3.3203039255755,0.536074466254023,-0.535953008919319,1.16443737044166,-1.11082499027391,-1.04192995566646,-0.288457137017853,0.00180161503329196,-0.601717832026654,0.359451706676149,0.233175634968326,-0.086971430543153,0.316556828950743,0.430003611228674,0.132593491712304,0.21049036378927
"8136",1.73903156936814,-1.44448183989642,-0.349209984146665,0.859301642885152,-0.705661475446982,-1.41319926731496,1.53395448591641,0.385560000261428,-0.0907896396618433,0.104347169682162,-0.158819510134454,0.00988643787152275,-0.0235304937314604,0.0375284689786596,-0.000726019465578383,-0.134536186394763
"8138",-3.0930751235507,-0.40584561629495,0.943524246357684,-0.0246273863904942,0.246290447177022,-0.299486057091282,0.641042036013349,0.149730050895541,0.128069857805862,0.427222463148444,0.524148449577373,-0.19606948896953,0.447502544939681,0.118043240005744,0.132781501676559,0.0408744341198281
"8141",2.48259490385803,2.69353832346933,-0.802220944307119,-0.015228450677089,0.569041202740668,-0.300271805584431,0.885367680858028,-0.115429378278172,0.579544483617406,-0.332558811778895,0.215344521243469,-0.126792558539162,0.698243793394782,-0.296839263573425,-0.194949274507019,0.0879675575263475
"8144",0.862304130276076,1.18076460582009,0.827029750495643,0.285864161632609,1.26710960618734,0.0395903284255666,1.87926580570676,0.342332439780242,0.228599339479315,0.319174419666309,-0.0510886222454604,0.469333369260477,-0.0317814380715166,0.184462123301311,-0.0893313092440944,-0.00079354382033231
"8145",0.953058435940695,1.54503774216514,0.555175444337644,-0.0325134146192102,-0.253530030753438,-0.0285831118889189,0.875973262406864,0.390964192797686,0.0780246321247462,-0.782771068189441,-0.202564572596457,-0.052277140884752,-0.104563772524176,0.118711253290708,-0.00599156863805834,0.0246294081087267
"8146",3.88216338714932,0.870783125797065,-0.403961595550643,0.286073495746159,0.0224532136870695,0.883793869048716,0.24790128320696,-0.43092049292788,-0.404945958880436,-0.274798628503053,-0.0513331473855638,-0.442061171607338,-0.792688682260827,0.709816794795116,0.158390403542104,-0.0526165894017955
"8147",0.284415123661781,0.520488824771074,-0.788032746654566,-0.291176179353372,0.564998511809704,0.71031931213003,0.707703813974836,0.285895721068755,0.222360150677455,-0.441711622588816,-0.28743178906307,-0.173192341760999,-0.49320648589854,0.293906747099228,0.0871006033459145,-0.105957652018425
"8158",-1.56066993379802,-1.83492796903329,-1.24818474023416,-0.617461894865273,-0.376450131492725,-0.746293376859835,-0.787952604811012,-0.498854251166312,-0.33991550985708,-0.124107490130669,0.635617267947124,0.272471601719657,-0.329492532209145,0.179168826112833,-0.183363751595908,-0.0713670395872469
"8159",1.28449647050053,-0.949528756293055,2.05639478981771,-1.71600169487225,-0.249367706944858,0.485784234857546,0.332792118526982,0.551188987896205,0.270044508844884,0.153774861644691,0.17709017068904,0.0219041270187453,0.428129309124504,0.257798602414884,-0.108683482808305,-0.345015696639942
"8161",-4.65791915229889,1.55735345434674,-0.663435682939382,0.162050608497222,0.949587257012829,-0.966254103317154,0.381184707990327,-0.141522891410652,0.390562111026286,0.00752482924184611,-0.125724610357364,-0.222961547756429,0.0430386977619354,-0.0483575405773315,0.318592251435391,-0.041751822245485
"8163",-2.18724611428697,1.0630786265694,0.616284395713008,-1.36672390637813,-0.614472293613147,0.174759683694563,-0.14225295642766,0.0261577549396664,0.561469713039518,0.181393946320567,-0.109741034984754,-0.114822342252202,-0.211595353496572,0.0429584584259183,-0.545579020082553,0.118431780118317
"8166",11.8884648457298,-0.442595181239092,3.75693004042009,-0.248695688533882,0.427702006354931,0.583078665145888,-0.51597055346122,-1.31156235374241,-0.896444572017765,0.232445738509592,0.483032565875082,0.798889584453701,-0.838712791307246,-0.829652540165279,0.0794893285823775,0.593252599147186
"8167",-1.05398565442731,-1.01885631104861,-0.485563153420372,-0.164291660893677,0.539254762316913,0.684440216592183,-0.144856649254825,-0.606385624093574,0.727869964098337,-0.251244451461591,0.143407378894576,0.102818556209845,0.156705003506806,0.540610689175285,-0.118125073013792,-0.0515907679844654
"8168",-4.93783974230168,0.423721705461037,0.586755685659469,-0.807543849718451,0.650968206796901,-0.537696915819681,0.253081953137726,0.324766014041601,0.0196381957196628,0.296368614566857,0.0176911928893492,0.0791456393433339,-0.215255228000727,-0.0666479235467016,0.218646155650084,0.11653099558942
"8169",-2.8635763129219,-0.297437569259826,-1.4640571796851,-0.673482126988423,-0.87354552454964,0.943485919096456,-0.575959021582222,-0.730285642842011,-0.0798350719353433,0.065089292339721,-0.0108931228994093,-0.559688404804684,0.0818488196974387,0.53801180985841,-0.169494476500672,0.161369979039773
"8170",-2.12267313220012,-0.312161856134578,-0.0274320136878251,-0.930723832630528,0.0266657032911556,-0.674894302542514,-0.983142630025048,-1.11741794285146,-0.654958885294851,0.146809478898564,-0.059980070187575,0.603310168315764,0.166703084563444,0.118815340718817,0.0215183617282446,-0.182198603459026
"8172",-0.482711946746663,1.87941584188863,-0.133680856664601,0.502198126174232,0.970488153711937,0.735095771750354,0.187909050018015,-0.821063697609171,-0.346035390404371,0.658771745467592,0.120056328297317,0.58244094291822,0.615131550992774,-0.163934392681476,-0.0762529585344573,-0.364129571327662
"8173",-1.36741163479759,0.431201594119294,-0.666528405276678,0.167002982920671,0.770572584441266,1.23411412393866,-0.169193196415402,0.446401624549993,-0.0418537737739355,-0.138460306809554,0.0794331460535528,0.195366175978296,0.380058199749122,0.0807749623607379,-0.462135287329729,-0.0648190711167078
"8174",0.631699707905668,-1.49749393229304,-1.14476073530566,-0.270030721404264,-0.286382758967584,0.205773142971709,0.418367560438184,-0.502320683530942,0.257973113052661,-0.758400561018469,-0.0974137027215399,-0.588223239879876,0.314646881470401,-1.35402960538822e-05,-0.354146377114295,-0.101627794010872
"8175",-0.864487463732038,-1.4313935835943,-1.07294321659023,-0.723294634484155,0.000321827796940781,-0.0244368088201997,1.04367353836771,-0.635732253473604,-0.697699616215582,0.357136240326731,-0.544559622020872,-0.48276810449635,-0.175216209097258,0.287780954460948,-0.0804342759589836,0.147201696050012
"8176",0.396101402919106,-1.03260866346547,-1.5033284589467,0.217714901476991,1.66710656487224,0.581159414462121,0.130440699983903,-0.0825307329418756,-0.589729235942623,-0.0683145788045528,0.956519176277227,-0.0819804269342649,-0.0675560573920856,0.166441727385204,0.191837674934162,-0.139525255924414
"8179",-2.14769704040399,0.786302492007779,0.955747876510799,1.04486760472062,-0.174173886157823,0.854636818179041,-0.0475586147341593,-0.360004381809088,0.333991609160664,0.445165626289888,0.0272388258737282,-0.284044806352634,-0.228180037769094,0.264737449730912,-0.169517214394525,-0.136842741741715
"8182",2.74628048602548,-0.336267774093838,-0.179811522786681,0.894954430854349,0.662610650372986,0.450447925036416,-0.377282570483727,0.73927244996042,0.137557402008474,0.166616799161612,-0.186682314625061,-0.175911739818049,0.20348005972277,-0.162313863676217,0.411951893292116,-0.0261237545176136
"8184",-1.59373189628526,-0.418570573713143,0.950827251971529,1.36958444078804,-0.215039238110269,0.482623470083099,0.522040248192682,-0.616589195998277,0.161608459368594,0.0844633865713083,0.344710958411021,-0.195485827788217,0.289227731687105,0.459589713839667,0.0411872023591636,0.25284434687814
"8185",-3.0595084802041,-2.01979842555021,-0.506809061058542,1.97513926274581,-0.0874030891400048,-0.148327495197427,-0.206415889271287,-0.0676717722027874,-0.139782787658306,0.406821752246653,0.150352769845378,0.188764132024984,0.166997507263314,0.00577188010505331,-0.000615652732326458,0.0390232504962365
"8187",-2.87552192374196,0.103338874628078,-0.321259293390825,-0.621304891219467,1.47925875877287,-1.21977909117453,0.126927090540351,-0.413167617218881,-0.984782278301625,0.284670075822261,-0.549138447518052,0.177218701933955,-0.219265091343778,-0.00966975043018714,-0.0228031777867179,-0.0258306898788396
"8190",0.339017329366665,0.295724262798614,0.974665882352086,-0.0984244715461774,1.12192669775042,-1.11780793667267,-0.6934259258607,-0.872507024744073,0.619445318136175,-0.415205331750563,0.254732992877044,-0.117728040519431,-0.0310351123931553,0.675673135548534,-0.117220472755387,0.0287846607479344
"8192",-2.09435131655196,-0.358138302423749,-0.857086101156794,0.850325572117719,0.137582187042263,0.242205803183847,0.326946937947765,0.211621930306158,0.60838846079905,-0.191994292581257,-0.0746638418354773,-0.133115493578179,-0.0121615399519111,0.315245994050195,0.0908923938403611,0.127643433334
"8193",-3.88961084999136,-1.34168108468054,0.566634338634485,0.111876984376637,-0.364491587849408,-0.0168773942532964,-0.576140946886986,-0.037864053493918,-0.526660432218991,0.533357719948963,-0.178264691591012,-0.637670427545346,-0.0449390462443493,0.0727032048922727,0.0999033106804767,0.11090496500266
"8196",-4.29759010353303,1.27112209771686,-0.221747913361721,0.709346859719086,-1.09839054982781,0.620509005293901,0.419229436111333,-0.672062856720954,-0.0222273901156357,-0.382365686452503,-0.348101007841246,0.174093139630771,-0.444247548779111,0.053292021419989,-0.203161450489611,-0.136752870468918
"8197",-0.250568968351084,-0.625542064537205,-0.0856791463324987,-0.424005205582809,-0.793175858106821,0.528998487464592,-0.525341397872048,-0.559910258831699,0.544052075415408,0.51589940795217,-0.148994561545661,-0.890756291197122,0.0363794110359863,0.213795163248834,-0.0079094236938872,0.366120782564256
"8198",1.62572318080505,-1.1604493232905,-0.597787294467704,0.231089874248276,-0.244306393872699,1.56132933538613,-0.666469211998339,0.458027778293267,0.190014577448452,0.597562026241954,-0.516434251804351,0.477486371076905,-0.379397408326605,0.400368487952433,0.0840969888599729,-0.109860269044635
"8199",-1.00135941801287,1.17953191697912,0.457145917860685,-0.122451248987356,-0.756230925053785,-1.16241372798905,0.087922904231499,0.284550952547818,0.320559126142001,-0.428811827951123,0.089293331481354,0.372436709971515,0.0913794002596332,-0.0863866136132795,-0.131320834812083,-0.235752946817153
"8200",-2.18621555669623,1.476279674439,1.29551919239366,-1.23380218851519,-0.752958678338014,-0.445035326851708,0.301187190831475,0.61707937078393,-0.319732219360495,-0.0257357892862855,0.247627430693005,0.39858584306938,-0.088912077326963,0.300295507303924,0.173295697519172,-0.142553531334256
"8201",-2.20992922601775,2.44017214306758,1.23421512336226,-0.952300472512633,-0.144975335714585,0.683671543330881,-0.105434443563472,-0.638608103731505,0.202837643116623,-0.41568292178987,0.0533071150132224,-0.149170228416277,0.552555105260835,0.211871057310644,-0.205206759180043,-0.186594156188694
"8202",0.863552107877633,-0.0180915522101312,0.197734079875786,-0.901391610382588,1.2295799067215,0.0924662416480284,-1.58451668761179,-0.848221501382325,-0.550603541980334,-0.407630846094287,-0.0832697672668891,-0.710156570574427,0.0659470033849732,-0.243097455918421,-0.167966519564483,-0.0950070438353999
"8203",3.38338435253919,-1.29515941504349,-0.256617263710192,2.30687399849598,0.319521514096546,-1.31405519407583,1.83315955759854,0.0777145044725811,1.65455276514686,0.857124950852107,0.0399164218275899,-0.792817074879947,0.168129396587148,0.0785393073594763,-0.416278955735515,-0.15935510972073
"8204",4.63514909501751,-1.07498723756804,0.555403349913526,-1.72968307332959,-0.0518907656743039,0.651819466581558,0.461703148990346,0.518612249245415,0.362255820396648,-0.185444925423612,0.0240355021620448,0.0896978029849543,-0.410331871069994,-0.468423396221033,0.54115132754323,-0.0680424251652335
"8206",-5.00725277909256,-0.330003972457835,1.08612190893964,-0.100010445258416,0.0791391276103874,-0.0758936441386824,0.00073642361892215,-0.00366329791658336,0.327595425958357,0.411203310715229,0.123006133500604,-0.0474833631274404,-0.165618558609469,0.117503367485644,0.188698560254186,0.0737720100301172
"8208",-2.5798267979382,0.400564867770869,-0.160886777204309,-0.471097831297177,0.666680884933575,-0.966653244350889,-0.609207869672129,0.735642242837681,-0.344448110845546,0.13046858851652,0.205890146895381,-0.10440956690159,0.522360290474121,-0.247933527815388,-0.181795057590958,0.144856772492494
"8209",-1.08691643002557,-0.1303083656701,-0.545271438861258,-0.581239711439894,0.197013738254208,0.584150434423686,0.291577913820772,-0.353001457467387,-0.542318165974308,-1.09356013409839,-0.13430840710642,-0.0542394824059645,-0.0379923530623533,-0.545353424993426,0.300024976839816,-0.0441049877241917
"8212",1.97954050522128,-0.323057119023648,1.57652902361243,-0.160590337882114,1.00504916442927,-0.589990741738925,0.207803483692349,0.492739891546413,-0.123424392234307,-0.863998135482399,-0.643598069060946,-0.72465774356701,0.621454108161728,0.0634923344424168,-0.356075545231259,0.160461566136828
"8214",-4.27439619270777,-0.55786517529343,0.196276419321046,0.00237456497891382,0.0701832754690766,-0.461854309846577,-0.402985734821743,0.274463576179505,0.313695527834542,-0.0913781365932027,-0.289638495362438,-0.0778473472189488,0.399168001709613,-0.100281635130701,-0.0658331802297485,0.0786613244716857
"8217",1.44789473640039,-1.35902109538336,1.21220241520364,-0.749393557549339,0.123129165169337,0.630975551495166,-0.288737960923199,0.52015537082485,0.236578770431703,0.300859143766508,-0.331145330486312,0.393849814322059,0.250635487092942,-0.051177317160132,-0.162785796088435,-0.0707848418747384
"8218",-0.0638481089415312,0.360853508932545,0.774619368728768,-0.585628380476812,-0.560926014269701,-0.0252678509809786,0.256306025402549,0.0747105474838259,-0.145138440218572,-0.624105141669964,0.138767954386483,-0.0287007489309852,-0.376087653655362,0.323040259075081,0.0923913699425554,-0.155276451165818
"8219",-1.47821415888155,-0.86048193602204,1.33750356705105,-0.032221625093369,-0.813109539701676,0.82749865551107,-0.272943884877888,-0.223075873055247,-0.203614139611507,-0.0319980754303184,-0.162159923364871,0.236335937017353,0.152263758186173,0.179903446845183,0.242065093432211,0.268580914917273
"8220",-0.196131382338808,-0.582171582640519,0.917791153145115,1.51780183567103,-0.25466160369576,0.528912387907913,-0.168890230529745,-0.843326132398851,0.93205730322419,-0.334193248437735,-0.506915088936617,0.857388976971454,0.497035317693237,0.149572227630095,0.0108580523295482,-0.0535004128981643
"8221",-4.4190227137692,0.276753481470093,-0.900229826195635,0.143607969019823,-0.114663618705691,-0.400757029284736,0.363501654658368,0.0610538037605805,-0.0590506623507762,0.00160396209361754,0.305047110974574,-0.113891379706232,-0.29212262479698,-0.0775688740224102,0.0808373897850293,0.14720582367326
"8223",-4.02457538624119,0.292351590988259,0.0307266227412223,-0.302195468032218,-0.00938728344567955,-0.558086893418173,-0.00603625181392642,-0.161839471783774,0.369130749223803,-0.0130174929595398,-0.326772306555541,0.126037926895826,-0.191673687371539,-0.238062347458179,-0.113406421584989,-0.152306729837854
"8225",5.6817682982585,1.44628022381819,-0.442975005147997,-1.13577293833138,1.82113055790934,0.998565606180291,0.0730401072361415,0.172019214196026,-0.046542527609543,-1.25910693858841,0.252675899173955,0.37945709134851,-0.952124744742713,0.269372730335402,0.360074063767953,0.173600923428502
"8226",1.75055889396849,1.2082106038846,0.776168614186465,-1.02386023717878,-0.703842247721508,0.461899637923569,0.857130397221043,0.496736554164724,-0.771663910869251,-0.136373433313293,-0.0795722343408211,-0.113476419314407,0.577513140585267,0.1938788097259,0.111292667814009,0.0204952132739442
"8228",-1.45651975026314,-1.72439356036003,0.506595199838958,0.199011752830324,-0.921797073357771,-0.399262279806965,0.211424596440383,0.032552065695697,0.0293974084118225,-0.479114545757925,0.134039143649764,-0.37595779009183,-0.533063202074384,0.110091991029049,0.0757461030280924,-0.0504164467568116
"8229",3.61877840318585,-0.0198325067557714,1.13293858127477,-0.317678049915204,2.17723752117836,-0.458150775077373,-0.894442799625654,0.451583729414866,-0.520970315391982,-0.381054107510987,0.261284643839617,-0.632950029212781,-0.228064778381286,0.349957537986371,0.0656925770940511,-0.0582148016960242
"8231",5.0081034350552,0.844890333481399,0.831090229168259,-1.5335814570547,0.603051288905422,-0.319204629921512,0.218528664325394,0.813721285006929,-0.466340704251666,0.0538741649560165,-0.337371566364545,-0.64265893527281,0.210148030793071,0.200559619766404,0.125091292938138,0.0190534738066596
"8234",-1.25180911389504,-0.165947570062575,0.512078035229024,0.877811234691411,-0.254678995734408,0.277140229092567,0.17327108477868,-0.391992678754081,0.838709843156193,0.405986046078944,0.279214257387771,0.325229338275895,0.274839300760601,-0.243418193869016,0.283132226815041,0.0734300636574233
"8235",-1.79807149594874,-0.511719394521809,-0.402824183617069,0.688784151361217,1.26271830914951,-0.358071304216835,-0.742408001949859,-0.59762767226541,-0.484691926293583,-0.0437096841848023,0.678844931858305,-0.172284655865872,-0.547307696007141,-0.0828707792756028,-0.284058587263522,-0.0830604958719262
"8236",-5.12480918046042,0.469749555160278,1.07132291010877,-0.618160925299266,0.261403926414204,-0.561482174721602,-0.0755072693900397,-0.508264337599248,-0.0123796918547701,0.412366217343211,0.540164143052898,-0.101649739235843,-0.0813878155747478,0.147346013285982,-0.0259452265194136,-0.0947271819693176
"8241",-2.45197396350652,0.0450082720382886,1.13332253805206,-0.076536471339854,-0.0179699611260655,-0.387436411668411,0.166567303384466,-0.385493574615704,0.0739312975569011,0.144965749869002,0.153101526555116,-0.0743238858397913,0.102680646637549,0.0311347201470653,0.179169225692434,-0.252096666867844
"8245",-1.09505044207086,-0.163122521726508,1.29814359765983,0.497922685748908,-0.632366877140549,0.923994345492115,-0.250723914828555,-0.745111599156151,-0.457471285712852,0.498054712020913,-0.0135620775866795,-0.0174907564505636,0.621405003858624,-0.334689368853905,-0.0560356412296339,-0.0912344272243114
"8248",2.84504448008254,-1.45790906019097,-0.77191566650686,-0.409864417162905,0.401568887153577,-0.164873400460099,0.225458788248776,0.505399788007261,0.0041879514224504,0.0159734785015884,-0.30314089802593,-0.506256839779247,-1.0195994916701,-0.261825560000607,0.18611180117003,-0.105253658084462
"8250",0.285873823582449,-0.6252324821303,0.711771349233979,-0.619743363340581,-0.167432541064767,1.09418433331307,0.57568373658775,0.373695646754571,-0.746696051022054,0.514652009209482,-0.438843577015911,-0.398816284337391,-0.287606660480948,-0.125841109517714,-0.147784695778237,-0.131563748060688
"8251",-0.668616980647945,-0.32046533501744,-0.411584345458551,-0.107897194878346,1.22166174169269,1.01062082410423,0.091384145512566,-0.202425662463121,1.02450325868484,-0.544636667063524,-0.17983531682194,-0.0401466805856427,0.494461919833282,-0.426446222056872,-0.0153304548982342,0.0446338440847388
"8252",-0.685992597674212,-0.631746715516531,-1.7524270066623,-0.361919104544794,-0.287558764350843,-0.33567594305841,-0.316065668084762,-0.447340509644739,-0.72635437560476,-0.116951360633939,0.128711109470474,-0.202233699855836,-0.882079492063542,0.190471517416973,0.102184174638609,-0.0842531443479711
"8254",0.324167863543518,-1.56177988145249,-0.705634186769399,-0.496324903076098,0.795569750170224,0.529763512115124,-0.114785066024678,0.121694922274788,-0.543994009081571,0.882691920788347,-0.0126253618565832,-0.093343665151674,0.490191651969246,0.136850137413131,-0.22422132418309,0.238271498701397
"8255",-0.130272803998054,-1.30059054811186,-0.134543484761738,-1.33082658690431,-0.235106487219279,0.731517753606839,-0.195723755462023,-0.1474806902269,0.45589775601373,0.013229854324414,-0.0443152088341521,0.207042374938898,0.0406453712844471,0.0208908308262914,-0.0826492588477735,-0.0502920756650676
"8256",0.835857820954329,0.159602482930544,-0.0193798944420625,-1.35777517118785,-0.0156752657914852,-0.165928684159544,-0.19655688573222,0.00754552964021994,-0.195985140543446,0.631308799676815,0.0199257069901905,-0.60227466734969,-0.609327113001413,0.241365769950439,-0.223765673231188,-0.0327931245129575
"8258",-0.126261693384541,-1.74095604947717,-0.325128090050269,-1.78108317635234,-0.356945057386386,-0.531425010908757,-0.367735847119421,-0.0683888891113003,-0.688322812031787,0.260373375602115,-0.321572417336225,0.280962777367692,0.695103166019561,-0.352271736432981,0.0623039468912032,-0.0570881447524267
"8259",5.65304739366744,-2.06990360111265,1.06147208906447,-0.980457966478112,-0.116709073095335,0.960400118663543,-0.624249914847171,-0.515091364846081,1.40906379864722,-0.304004029066181,-0.917133271135681,-0.304629331205255,0.803682019245296,0.769038454175794,0.251777066701403,0.0501185780918278
"8260",0.563324999464942,0.382212890381946,-0.9621946865828,0.0168743399623157,0.707613589889921,-1.1111748390504,0.105436841909335,-0.408874509133345,-0.0214761583765117,-0.211407949386062,-0.476851487219322,0.00654878681864646,0.151346778717932,-0.295800587776124,-0.261771233940696,0.179163237405814
"8262",-0.932696523006189,0.453202767099824,0.155726684935987,0.270558327121006,-0.0621901129539451,0.158953544067052,0.341972843944542,1.20792919730219,0.0140768138169356,-0.0707710147505648,0.00983251015469963,0.0281255124653115,0.455901960421673,-0.0799795856941771,-0.11772394216457,0.274733282067929
"8263",1.69138077240491,0.467426822005113,-0.476873470486387,0.495029035712832,0.0291425976089605,0.597873892275867,0.205796412302306,0.711876147568695,0.324591856240312,0.167486702029368,-0.145453594529824,0.256075727713308,-0.252495305537875,-0.280302116325641,-0.36146875603067,-0.0337614267833745
"8264",0.676939738172824,-0.836055084117729,-1.57252984199412,-1.12232182281269,-0.532168535435924,0.277993731013291,-1.13538137630527,0.455352946835628,0.748225153995595,0.74732987138766,0.485721823643485,-0.795441164722159,0.00379127267497897,-0.0840523022011589,0.110674187678954,-0.219154568970907
"8265",3.02255821161486,0.494946392054956,-0.881912291467665,0.288302181935432,0.488854031275534,0.598072464669496,-1.09002556898179,0.362119691831219,-0.401310969684763,0.139890237911401,0.0265402704857,-0.046301584722329,-0.309904542094575,0.319912240731748,0.143227117099797,0.101619168887192
"8267",-0.422512335582314,-1.1381370717479,0.459822094040062,-0.933343711050336,-0.58258801980386,0.449433952377248,-0.164571837779206,-0.983901231965279,-0.292624080769745,-0.471150319242955,0.398418844793547,0.365344939511856,0.243860828221395,-0.513743888613238,-0.0854605962242818,0.209441761719043
"8269",-2.6380525771202,-2.54662895890814,0.710570482166902,1.70589515728489,-0.22049264878773,-0.687815955896493,0.0786675598830334,-0.924045395597627,0.844301606875254,0.0324483509617835,-0.434746936853329,0.325217954139882,-0.268475941124469,0.0991769847154429,-0.0472600886497669,-0.189462300045836
"8271",-0.472096793285975,2.35245895857402,0.363381848610044,0.979707588585791,-1.32892580379406,-0.195804580917593,0.0640043827973385,-0.686900745857629,-0.950246929168051,-0.451927564961673,0.419953012535499,0.236894734759464,0.0313892681475749,0.177638633073068,0.184736407550467,-0.276805413166729
"8273",-4.11031692225555,-0.66115642934833,0.100108685839232,0.0795156806654458,-0.917867644643504,0.0899334839680537,0.0544992896199978,-0.0791672766773902,0.108922773529981,0.199454796566304,-0.259282150995261,0.108031212370755,-0.395526100914797,0.170369692754244,0.323856022599356,0.162196758152505
"8276",-1.02907693401941,1.14003518036854,-1.74695786263051,3.27766395706604,0.204947002363042,0.121805700003818,-0.662203896219983,-0.186901213215097,-0.154218941562146,-0.601348275814432,1.33459358990734,-0.0801970865450949,0.417604306206433,-0.0782594278237215,0.2315683230284,-0.0034733173592258
"8277",-4.42660565913024,0.00967146328504562,1.47354553298025,-0.557372305105166,0.0949543998539203,-0.329069512693458,0.290648924475213,0.818426114009584,0.318369324220153,0.25114291206671,0.0231005956641085,-0.124531073516519,0.607295430294557,-0.00699736020931896,0.0319934388324994,0.00621049778188525
"8278",-4.75836896368713,-0.28147990507998,0.536828074007669,0.293253272286495,-0.426211057353301,-0.199174243109916,1.10726135750786,0.320623644128292,0.129996340539452,0.191448516215127,0.531376170643372,-0.000976220368893915,0.0392943059151103,0.0864788022773881,0.135305622416809,-0.135950290728187
"8282",-0.451586927428038,-0.802418531923247,-0.23830488379699,0.477256311244244,-0.760074899042817,-0.50236439442089,-0.293202926182686,-0.0174141802056603,-0.28224834040898,-0.0376138315360785,0.1317776235482,0.559911937584358,-0.520681568991859,0.331356641452408,-0.147679102789918,-0.0982442758474434
"8283",-2.42949626896542,-1.04017659806748,-0.383269631897661,-0.0866490547295196,-1.30771085945716,0.045981374760598,0.103553567489489,0.265105930052679,-0.0927307532035183,-0.525396194759524,-0.0905977249649385,1.19160733458127,-0.396182698876084,-0.261663792922247,-0.367051790280196,-0.14943078541799
"8284",-2.89970808481548,-1.43241216865933,0.935415299294285,1.32765092580742,-0.0501722648193698,-0.165635648905834,-0.282135002157656,-0.196653662617704,0.133312354060888,0.36401238703285,0.715295538245249,-0.304213359775005,-0.258685018915679,0.269953346811538,0.127562689104865,-0.0155296366433037
"8286",0.267359151628999,-1.37868671211162,-0.966312343955605,0.637807291623807,0.370904400660931,0.270273621460887,1.04627929981767,-1.47134694554414,0.343960397929359,0.246748723745185,0.271418673406453,0.360979882319041,-0.0909529257115589,-0.249398281720401,-0.166248155411446,0.0703772999002441
"8287",-2.91104125747646,-1.22085661805554,-0.193839850618936,0.85241688361399,-0.947411757196744,0.882810238887879,-0.528774371107131,1.05384782233654,0.0927813055139555,-0.463029089037088,-0.571354358047701,-0.473233258346054,0.687873377423957,-0.290318087486622,0.00740944643945009,0.0608714114424214
"8289",0.88888857887283,0.930430654642536,0.440225782443624,0.195968202327964,-0.265739774832426,-0.274564706764208,1.42999474999215,-0.555293114749692,-0.814935254070875,0.72251908930867,-0.0245450851895955,0.603870812901624,0.272494273518969,0.172172580252925,-0.0394676415245165,0.0408892730847872
"8290",4.5475256969252,0.0683615461599816,-0.396435413774395,0.498503339470013,1.2124129470399,-0.824621934024477,1.91180695111953,1.16383016234917,-0.0662579398646321,1.03437592390302,-0.548633117690718,-0.277558932231114,0.0551809981386787,-0.293562638890241,0.0244415214491891,-0.000440535540299825
"8291",4.77069788111811,0.788949444256354,-0.526177446739428,-0.112984482498914,-1.12685846323471,1.46695573785949,3.38140387728668,0.177068429027544,0.141178547131554,0.67538480820302,-0.406331500574701,-0.236679014272911,1.15017535375559,0.422495783688106,0.0859528199709625,0.125626466158324
"8294",-3.2484290565731,0.817509162244906,1.45936664496729,-0.413257578093798,0.0560638563793451,-0.69342671350596,-0.220643753642906,0.600569471467562,0.317010761792224,-0.00712635392500283,0.59223736643244,-0.0258031959443732,0.526990058193278,0.0277495053854994,-0.0621824565467496,-0.0994988020825377
"8296",-4.48793736658102,-1.31533850061055,0.694143537033356,-0.115192119459593,-0.363009851448191,-0.27081234317592,0.507936446426215,0.102874526143765,0.311314475269542,0.427147850779971,-0.199694261618569,0.0621681909379498,0.0918834241594847,0.116263551074919,0.0493133649237485,0.0913544947791216
"8297",5.59962422579844,-1.10957300290443,-0.229609473668926,-0.484435367917548,-0.136175812893247,0.517915550891441,0.227102533167348,-0.761514616337219,0.323408368212802,-0.197549822156066,-0.691055198369718,0.246280579867213,-0.638052952550439,0.358863319347987,0.38966975686987,-0.11406034021601
"8298",-2.19738723333165,0.601491197809549,0.168201493560503,0.472683174207195,-0.77993871775271,0.0260495015609584,0.216773561739545,0.658329206780599,0.424685492645581,0.115463243099239,0.121830358777031,0.324991628479949,0.0276847029952007,0.0199670490124982,0.279576434724997,-0.072714083575897
"8299",-0.336501059351441,0.239234204117732,1.26245071335936,0.227483570832723,0.356958450373469,-0.672930024020144,1.04189070686479,0.101567115596166,0.780232895123294,-0.690089871552815,0.732531293527217,-0.490530620815997,0.000100299343438789,0.350014946904565,0.569161218699314,-0.472311614917801
"8300",0.687377891311589,2.35546198939997,0.223402306756994,1.8157565935418,-0.973697847931372,-1.19193929842653,-1.02331264068135,0.91090088320305,-0.160558811916528,-0.216948652368907,0.0409866767980239,-0.493027761937574,-0.144358457142868,0.0665611644537616,-0.416286906242434,0.188073108414718
"8301",-1.46825084973207,0.220485185155921,0.815046593779167,0.804261599232854,0.622091732690189,0.0793936319354721,-0.210929233178335,0.315111589571495,0.00755374687627019,0.0735176711742849,0.412850717525683,0.380746378035824,-0.544457430892255,0.0741119160899469,-0.322431504330657,-0.00512823208626396
"8303",-1.19797140539569,1.04492277663463,-0.0345040459764963,0.45334937426973,0.190091344991578,-1.07469341384679,-0.363575372831791,0.655730168297143,-0.111004493293658,0.0486674444833788,-0.260820472276771,0.235507653563076,-0.131220651989703,-0.3559051382558,0.610118589801051,0.159026585013904
"8305",-3.59336793997074,-0.569698831034189,0.349081698747033,-0.232253971952346,0.223481789271123,-1.20841369112261,0.121319186673325,-0.624644254820131,1.02533925278845,-0.442711372790279,-0.592724066857525,-0.0186448617039078,-0.105167148713937,-0.339032493984614,-0.0517561565945326,-0.249509572811316
"8306",-4.7604666543924,0.125607631419534,-0.364440315295851,-0.134986266882702,0.646195343971754,-0.455076349492093,0.211778435749053,-0.281766863886829,0.292195672183221,0.304432533521388,-0.663458873501227,-0.760862360275757,-0.599282838576465,-0.0497802996958215,0.141659989170209,0.171946616405626
"8307",-4.13942560723723,-0.579962068388487,0.613982027235993,0.427866517887017,0.00869050852357772,-0.334761400904931,-0.122709979888075,-0.60858073626056,0.125723395749746,0.165954346459877,0.324612895426512,-0.0139311628259436,-0.254585366890409,0.15039673710589,0.0224316520001515,0.0757372701782
"8308",-5.06389093986663,0.467452440042745,0.0914097259956843,0.293278415968361,-0.0538444631967916,0.28021757180993,0.227974582219708,0.438754555160568,0.115953091453765,-0.0134985728150132,0.0335301944693301,0.0626587424620489,-0.0125473794761636,0.0393015164525332,0.370792815227205,0.175656122342112
"8309",-2.7752125138979,-0.293818191866893,1.23452486006018,0.651142255372643,-0.33375137787155,-0.346905412604325,-0.505296272964239,0.159833958685888,-0.49904434507825,0.477748291788063,0.683393986341232,-0.202932705785219,0.153277427567522,0.039567201673672,0.197559700045797,0.0614394770609707
"8310",-1.43550600117706,-0.353720816620091,-1.02051845293823,-0.480111929439793,1.59068104298559,0.500313915162679,-0.823086947365434,-0.338873911797039,0.191295020761439,0.355623435474633,0.227566300713609,0.424145771206463,0.0256957750429532,0.321751534141308,0.205901428237657,-0.407987964951461
"8313",0.0198840161390166,0.10525813178213,-1.07295882804696,-1.21510333390708,0.568075269168321,-1.51844733099969,-0.504208170782247,-0.162978429917922,-0.186415469541364,0.0685629844561569,0.61781752483747,-0.276460137764198,-0.499576927973317,0.0397398998240852,0.0556560195651453,0.00581701352365939
"8315",5.18132997767675,-0.856636034527883,-1.33602156730057,3.2858332478233,0.801961107873197,0.430577764374495,-1.18089713696143,0.957478809655531,0.291044181128405,0.0519795083428267,0.208573637129043,0.175970756492253,0.581742361998187,-0.0814440099453899,0.14976460492735,-0.151876911679637
"8316",3.92091263378179,-0.182657148881914,-0.0879271127863588,1.91845272254511,0.931646679935189,1.24458030508893,-1.26017594051013,0.732991651830316,-0.0657039818932149,0.63391632260681,0.121582968823313,-0.211959706464233,-0.42066138367477,-0.307151242297228,-0.0438614884780728,-0.102806441578914
"8320",3.05466707377774,0.0951906639703408,-0.275771243789275,1.49672031160008,0.475080869701109,0.204266805996255,0.00449580728254484,0.396410020818133,-0.591109659329435,-0.586507341180674,0.786051568015123,0.232778100073941,-0.283347496880021,0.00743158271355338,0.115377041932232,0.148873682789395
"8323",-0.205530150405877,-0.0870929839775962,0.522276627176409,1.73253245355395,-0.620215032198084,0.777376943955274,-0.133868544766394,0.532684493792422,-0.572732237246403,-0.747369879420472,-0.637231752751945,-0.426558707305988,-0.257944868364168,-0.122146937386129,-0.337235061569804,-0.206380588964339
"8325",-2.1301972059925,0.364747175465782,-0.490893231702859,-0.382353219783541,0.193197940101784,0.12356504464374,-0.483486787959308,0.052221881601855,0.919097656760817,0.243003166058618,-0.242935238278781,0.430212750621181,-0.0207979168289815,-0.40432073717808,0.00404362810337252,0.0782836069985302
"8328",-1.36833151814662,1.46598178003396,-0.520533082060137,0.383046229046776,-0.261803951198363,0.433140177627688,-0.00668882426889178,0.149567335160097,-0.435166466862275,0.301487274935577,-0.291556084125687,-0.0636383410032642,-0.168536936505826,-0.0718765095592089,-0.218082804934318,0.196103652844847
"8330",2.14705077541016,3.7362796545261,1.32993830558332,-0.485141646517067,1.4489959242879,-0.46896475388679,1.33781021322493,-1.12025578350911,-0.863717080136587,0.806123564471316,-0.729339993971538,-0.594184460246552,0.356080232342746,-0.0424671615531568,-0.333203455429856,0.424549437684965
"8333",-0.925747875748164,2.64906948904932,-0.146168525988492,0.975984931651193,-1.07427712964025,1.0634448746452,1.40584348786547,0.775302291314776,0.393315267127627,-1.16333237902168,-0.489178210583724,-0.228382735663846,-0.62980496986914,-0.262683156482331,0.10474438282166,-0.183661823275534
"8336",-0.0958363513245445,-0.938030473916127,-0.239993794701989,1.13665051455932,0.716571649521771,0.465443090527626,0.485246913294941,0.0231212406436632,-0.644772734643572,-0.115057392081625,0.205616412066754,-0.160356961871299,-0.158867110305604,-0.0519142957282134,0.0440373546879492,0.0524561093639256
"8342",0.97058586015336,0.234580798337837,-0.989265262765429,-0.571966712995331,0.539366688296128,1.70761862398645,-0.402932582381435,0.242363220451682,0.19177095935873,0.454296286584797,0.322779955951156,0.861508959352876,0.119540501275651,-0.0723593044674065,-0.249319510638552,-0.0796032665075097
"8353",6.00121741783173,0.937961522855928,-1.90765213803466,-1.43484978353425,-1.72600597309222,-1.1991639180282,-2.05124652524339,0.203609784455084,-0.615465352998819,0.350476853191509,-0.415909524541776,-0.569190774527051,0.46966858600764,-0.366352353801096,0.506971727259967,-0.46192649594609
"8357",3.02109480653536,0.918248837205438,1.3348336699348,0.804300747134072,-1.70155108320684,1.73255630845674,-1.09832918276475,0.158474871383233,-0.194112489975058,-0.470642293862511,0.840432927621083,-0.757949365380747,1.41792942404229,0.410128690335127,-0.526560418727406,-0.067368640878723
"8358",1.42710015984977,1.25231590740951,-0.0845241795533865,-1.05697695409499,0.200613088736368,0.759332460705505,-0.541931987631638,-0.0264204903890241,0.181497094916841,-0.295716875523825,-0.497127534320955,-0.196059035508699,0.0865394419217696,-0.163809680231067,-0.0926254585127938,-0.308174262281413
"8372",1.19418568768649,-0.0688520957762947,0.171106013641139,0.300928585761351,0.28201071519078,0.051074055546961,0.485609723082287,0.291880247770945,0.00759963268764249,0.490548320424119,-0.126714807343143,0.686113545856704,-0.279764207137206,-0.403496850055801,-0.0745301816793905,-0.0632643821976616
"8373",1.55753369184129,-0.114069184135584,-0.206315392819448,-0.287539236280714,0.282561126132966,0.291375537649385,0.581052720651446,-0.269333613329838,-0.0221977083495635,-0.671945416353612,-0.187472532526052,-0.0487969101478961,-0.826470754877918,-0.218299047830505,-0.0908897050832233,-0.109921956586494
"8375",3.23516761736106,1.89739107829191,0.420392336393382,0.666117942231545,-0.232629202925984,-1.3554607557263,1.09818265543969,0.0825711108818606,-0.112497796999855,0.433501438066388,0.552589965555335,-0.174556072204475,0.0522445577400345,-0.267603038760689,0.0305600020000892,0.0350519572998551
"8378",3.66915345630776,-3.08787383157177,0.701010235017072,0.434015577138018,0.708321153277387,-0.0760206794684012,0.732732076833967,-0.810571863840483,-0.258621508527657,-0.448216981775044,0.261180026503555,-0.0666219139984458,0.902497395726817,0.368236649912768,0.0028008094323187,-0.114824135766661
"8384",-1.70243762833763,-0.499053455283596,0.62146032167362,-0.41402790592566,0.650874532248371,0.944800830484312,-0.122183131201894,0.0725343542692832,-0.543048327682219,0.164179667694342,0.523991692698503,-0.275479469168526,0.130511428982172,-0.00999660052866141,0.0807836396671108,0.0597842445197153
"8385",-2.88411521455624,0.272337139123115,-0.355533411891635,-0.563469251233114,1.17935361085858,0.283030292834347,-0.20054736806225,0.763643212783618,0.0315583711938866,0.0425589480687637,0.364764686938651,0.247220083948967,0.198594400075382,-0.265558556935253,0.14428319275585,0.149345606103204
"8386",5.40852603532155,-2.42051705116296,0.777677810430808,0.536937019373382,0.0755702338841834,-0.385814879886997,0.728146699474004,-0.500781702833776,-0.175146590679365,-0.0270479292273565,0.664805756230386,-0.00723684411833508,-0.0146705476866778,-0.487634457815055,0.0165949796282218,-0.283794557336178
"8387",-2.68861044628713,0.95482182941431,0.388779830303469,-0.843840805696724,0.718318316896921,-0.810345056569063,-0.206284721570222,1.06963706805357,0.188750063079871,0.395548604355707,-0.235158155875003,0.111976707157163,-0.0385168192988674,-0.102964893822297,0.106058929416688,0.386470783573561
"8390",-0.943076321300302,-0.198433135811211,-0.154054314757805,-1.15668386401471,-0.301197511047843,0.683178623117176,0.226515219065787,0.9767498609291,0.10534103497982,-0.556484994147239,0.532076610929515,0.486305542496599,-0.177096418897978,-0.0828851735840986,-0.466009162323987,-0.152348038904099
"8391",0.471659994987271,0.264276505502773,1.22500104063653,-0.841224459081456,0.0751742522722214,1.17553560777724,0.247572433852635,0.833783546995857,-0.0245017865539936,0.330505667439791,0.788960654870849,0.172592839132714,-0.0273067231267624,0.234243340190833,-0.15462777670498,-0.162853837704042
"8392",2.42124422554654,1.80999918444307,-0.0759741011428479,-0.400328428685485,-0.476626475792799,-0.2019967368661,0.535524516563397,-0.547273287418149,0.146259324607815,-0.233356448209334,1.17780858936895,-0.551308743690509,-0.127138458536844,-0.220486011831445,-0.0555697470316719,-0.0345786592678965
"8397",0.897309910769864,3.08193122761644,-2.20792942424424,0.153597815689417,0.0857350321720361,-0.743909861933609,-0.992390095642368,-0.780433392535445,1.50588341888193,-0.612406461335893,-0.675247710510785,0.621751014049608,-0.289518636202472,0.391765810937736,0.128455752332808,0.621631611546252
"8398",-0.349708886116382,2.63080309074313,-0.784523007351561,0.256685635845921,-0.781648638197365,-0.552400804768352,-0.739981786571317,-1.94237314813817,-0.523643375494304,-0.0836389807574365,-0.35738130539729,-0.0168747417946684,0.638691648676018,-0.325225124524167,0.0927758145483599,-0.346305070848887
"8399",-4.96983583133095,0.876712532214199,-1.52511059877729,-0.131046447212647,0.766698566263583,1.17761428350511,0.0838009343515772,-1.19137591215605,0.626676707590109,0.454119983831642,0.337324570736902,0.0180678865421883,-0.122858260148772,-0.365439090993586,-0.255191590458584,0.17633428590178
"8406",1.5031875166263,0.0564533692415836,-0.402931538404129,0.668611782511798,0.236108923306966,-0.222888438405542,0.19618981638726,0.0351086954206425,0.0368051453704693,-0.24791412233579,0.621205699363408,0.0397458540411017,0.141170618915372,0.117759587012447,-0.333590668406023,0.208095199762087
"8407",-0.404895324619726,-0.555856069057644,-0.856476277795036,0.441186198285987,0.234229629110079,-0.0647544115112747,-0.575981784709516,-0.031366048524484,0.1626065819444,-0.196604229732586,0.437684692065431,-0.116394947878709,0.731741855319068,0.031808711402299,0.190298534987454,-0.288929501693312
"8408",-1.14340525971873,2.10094365291533,-0.444161579579945,-0.947408595034137,-0.256159377180313,0.00073336624995135,-0.786140170527614,-0.532366761285451,-0.659569230514583,0.210667798342447,0.393484758738111,0.293225451546685,-0.145518786797647,-0.0916577627447756,0.030924763087136,0.0929488216076899
"8409",4.36301182100899,0.93996509769599,-1.92483188156384,-0.419573317551693,-1.16150316668153,0.255333587604746,-0.793501068920489,0.307765769106031,0.441748546204345,0.53988099689755,-0.0605271819013108,0.0126019717193726,-0.00447856653423317,0.596005389892239,0.161309057911407,-0.0620163673030997
"8410",2.76961706929381,-0.398644020769186,-0.391103507609958,-0.128940593931931,-0.492419063031233,-1.51730145703194,0.412508968442372,-0.00964407454363712,-0.0392055383014295,-0.808808362077857,0.0695791847598421,-0.397469378910581,-0.127268196864945,0.347066359020684,-0.728180905052787,0.105596481578473
"8411",6.66234231905061,-0.0905372828703421,0.617575700981709,-0.776647351287879,-0.521250512571678,0.609576127620679,-0.916208792743794,-0.232966743041117,1.60110321411102,0.415743290044706,0.213726574878334,0.699575921033723,0.502292036941374,-0.630249107707097,-0.0952825836563452,0.169368378766779
"8414",-3.48406789604273,0.887974984737921,0.594278651747308,0.39636120355326,-0.727032135832537,0.21830487368491,0.608802410920875,0.399416671389314,0.483648668085291,-0.673842386979715,-0.381149278433826,0.103775028518953,-0.336957501796567,-0.0126735580344257,-0.182615138589055,-0.0745381883772778
"8416",3.72560786532066,-0.150746385951571,-0.741292754955231,-0.656415605382214,0.288867012744977,0.488452972787048,-0.598274669980944,0.274593302602387,0.311548234512543,0.116869408151848,0.239586235873852,-0.925991974694633,-0.300887797732841,-0.00871895780628451,0.240205448282696,0.00741301936691456
"8417",-2.81274085286249,1.84733070794814,0.0768389475157657,-0.935180436220578,0.874199270133696,0.0528427802297096,-0.19902011882575,0.400074035807687,0.281598220918491,0.244459501009021,0.327986933857938,0.108733907682412,-0.228189249949721,-0.069842268958725,0.136002541799123,-0.273903198218868
"8418",0.433011434014406,-0.621722721053945,-0.0156080804011236,-0.0585357105431071,0.779576855291918,0.430533264634062,-0.308023987230763,0.662431242613939,-0.241038361855579,-0.274042901523351,-0.00148108634005957,0.399145037724004,0.368079128565395,0.959157683983143,0.274071428427684,-0.00276219621679544
"8419",1.54539997387878,0.122694000183671,0.458128266026589,0.881665821348162,1.16114060778595,-0.936069709419663,-0.228627287129916,0.589402292481032,-0.288457055768648,-0.436643719336014,-0.437329991087897,-0.122308888429938,-0.596795283547221,-0.297190264798932,-0.124490215129484,-0.383540194529813
"8423",2.53473466915803,3.65484095123016,1.89400927635062,0.755882613000356,-0.00702382401836023,-0.415906911258382,-0.667725722073702,0.859836217862716,0.0823452056530926,-0.209142718564464,-0.479623493781302,1.21518550506787,-0.535204446000531,0.553937330391943,-0.521859163224903,-0.116886713942343
"8425",0.596606708611973,-0.370877416666499,-1.35248772762727,-0.688200433255697,-0.251387969023088,0.390710377354323,-0.768547072177886,0.289787335972035,0.105795526005189,1.34219508539959,0.329034992113395,-0.294064425411683,-0.592006531896364,-0.232355924114977,-0.452476010270346,-0.19546071147366
"8426",1.3902652349538,1.24564310551876,-1.20351279305744,-0.853107491630335,-1.27848502211171,1.29556750200346,-0.441051381397521,-0.0798160411416381,0.335243934340011,0.5759061278383,0.250069369522642,-0.782948802585563,-0.724797120742412,-0.0364535306873887,-0.375997963430166,-0.1105376565603
