"Tract","Dim.1","Dim.2","Dim.3","Dim.4","Dim.5","Dim.6","Dim.7","Dim.8","Dim.9","Dim.10","Dim.11","Dim.12","Dim.13","Dim.14","Dim.15","Dim.16"
"AF_left",-0.754026116890349,0.186907924677874,-0.270667432194136,0.0329987669749251,0.340131873932049,-0.101116046770334,0.148340114968705,-0.252502255541739,0.0319987788701857,0.259037413486073,-0.203891775884547,0.00763076556926799,-0.0119226830274059,0.0105900055630949,0.0135747130807243,-0.0170581420726607
"AF_right",-0.797224249778493,-0.0308845917428724,-0.278944487379838,-0.156263121087905,0.0567196575948365,-0.145306325007939,0.20937431663305,-0.253308169822624,-0.147645852164138,-0.179662263267814,0.248627253078855,-0.105337523926002,0.0379426338352384,0.0148199045438926,0.0157237382368737,-0.00468253088163076
"ATR_left",-0.748156987243291,0.156970710127881,0.514985843670532,0.00609686833092486,-0.0406413441502293,-0.00793808683960412,0.0106256957513554,-0.200118501215067,0.198448165903896,-0.0245320512329313,0.0630074279797789,0.165893913640832,0.187969242189015,0.0387455859028954,0.00788107099540148,-0.0113439513664083
"ATR_right",-0.715250703793536,0.240753797016613,0.492278863363714,0.0597227718451954,-0.0443797616833151,0.225856008540571,0.0430369315220645,-0.176073301193752,-0.0854809909275071,-0.164372609525626,-0.144849719429199,-0.142511516877481,-0.150989611375996,-0.0135303535116779,0.008879834326648,0.00617685546224516
"CC_genu",-0.781750163580315,0.13997668516414,-0.224256224779969,0.106467657595465,-0.0586093638347263,-0.346302750083924,0.0368949171473603,0.157176053740254,0.243312166338515,-0.276479007318267,-0.14758806755646,-0.00599374593453563,-0.02274460541237,-0.0110008115168275,0.0035764495957033,0.0104906381214908
"CC_splenium",-0.668039426290015,-0.315890268954374,-0.0745159712192028,0.309858450557331,-0.235332658218073,-0.194713899478817,-0.443680811424652,-0.20439323246477,-0.125223009763724,0.0385440279037689,-0.0411921283730484,-0.00893198769544207,0.00689587097364117,0.0108211754778355,0.0365467071096806,0.00205577096219111
"CCG_left",-0.703114614084313,0.192379192442634,-0.185580985343952,-0.43964801961307,0.0707725581478929,0.212560377797379,-0.343957240417411,0.02112031751266,0.186504499045985,0.0345869876585514,0.0291208951835469,-0.173715911905887,0.0660035888960755,-0.022880672200944,0.00130598024508059,0.00767758454874339
"CCG_right",-0.757803252361529,0.136354333448525,-0.279281499146046,-0.394236342190847,-0.150742821535861,0.171423392714762,-0.0509750750521767,0.000584358317660302,-0.162984751676871,-0.0920382010544274,-0.0789237236159176,0.272457888870817,-0.0584875887559995,0.00485733409523566,0.00740903365803194,-0.0040618988868593
"CST_left",-0.760364492184617,0.337612015919835,-0.15373420078301,0.369537779844005,-0.0700377447582739,0.118537754964579,-0.0334715597908777,0.0310515882259291,0.150378034896906,0.105238276945504,0.231329419342995,0.0567906089199485,-0.185126230260944,0.0376558737557321,-0.0186181375335328,-0.0129273426024869
"CST_right",-0.699424586227335,0.338881994587105,-0.207423061932586,0.42696221700288,-0.0867728588274044,0.231784027350728,0.086165596197136,0.16951740619672,-0.165324311615197,-0.00332678506297189,-0.0429109208876412,-0.0440417169719014,0.20019914411508,-0.0417717818643742,0.0119623377521203,0.0117159359859071
"IFOF_left",-0.87119830892412,-0.250563111343526,0.108393539233497,0.0775711042769482,0.335885621319824,-0.00202099671989887,-0.070712547288584,0.0385942266831155,-0.0495610700417807,-0.0244806386546549,0.0391931237618707,0.0661378482098945,-0.0106531262376427,-0.0609327645756587,-0.127391821374299,0.110142181663693
"IFOF_right",-0.809760549230493,-0.442410878728469,-0.0389297640503891,-0.0373595602174667,-0.271251341166388,0.0816661384567977,0.14758662420351,-0.0140582301349104,0.0699120359200862,0.0606535473461883,-0.0406878688916632,-0.0420045787184693,0.0110153017832564,-0.066539287676518,-0.138561552834384,-0.0876844331022768
"ILF_left",-0.745559144215269,-0.402453711069891,0.0841400700751629,0.114303362922526,0.419174312813461,0.128140813724191,-0.0801030707945823,0.18463400681094,-0.0278977499461315,-0.108242546529367,0.01207353618004,0.025628884575122,-0.00691352284971611,0.0508902146819801,0.0701098948654053,-0.0924338695003626
"ILF_right",-0.750260422876011,-0.524040653624506,-0.0420488778425505,-0.0447000727024983,-0.189310359395661,0.164613337116762,0.216694204948521,0.0431256648032235,0.12188644529885,0.0909453078029963,-0.0180380284015885,-0.0229512993350688,-0.0159981861710776,0.0466291916094493,0.114816723629183,0.0859053640260391
"UNC_left",-0.841594337955887,0.124800972910004,0.291523838511527,-0.166402364468299,-0.0328463873016677,-0.244287500980531,0.0284625834035288,0.167665437580641,-0.0791343713082153,0.148576358220636,0.0781225284559203,0.0086927875010831,-0.0379909992332515,-0.174113823160451,0.085154660589114,-0.0162657198827728
"UNC_right",-0.848193602308791,0.150969156592672,0.210835561384308,-0.186884599409135,-0.0871371701032418,-0.202954504599079,0.0129584055104837,0.224994495612345,-0.146338075172652,0.119779210015346,-0.0165932816483476,-0.0740651355917991,0.00875357467979119,0.183713447813916,-0.0587910065251355,0.00425058947440645
