"record_id","Dim.1","Dim.2","Dim.3","Dim.4","Dim.5","Dim.6","Dim.7","Dim.8","Dim.9","Dim.10","Dim.11","Dim.12","Dim.13","Dim.14","Dim.15","Dim.16"
"8018",-1.304390369708,-0.393613840892468,0.123263738561365,-0.443285625285583,-0.669917997862186,-0.535800300376566,0.013602072883007,-0.378599766193414,0.286448354103286,-0.0238678150903833,-0.330031856225133,-0.168809049031633,-0.547912556556862,0.518256991198973,0.257397294074093,0.0370520218172989
"8021",3.63419672417999,-1.0600333590859,-0.869658656216101,0.568473753036149,-0.240963141943005,0.529504807809355,0.568255692775129,-0.862589052504331,-0.610529752819891,-0.183080228904286,0.802141363359495,-0.331839475153513,-0.0159415421150365,0.448325097056193,-0.0710769510206629,-0.0759544475769384
"8022",4.37909458467408,-0.570635071563752,-0.591562252673607,0.581674564399167,-1.22885647944928,-0.27398643196947,0.879933990606917,-0.694771222796737,-1.119143687942,0.561035374139559,-0.20916985368681,-0.100674753518764,0.0702127931322834,0.041289596309757,0.0922639983032373,0.12231478875428
"8024",-4.18355850092639,0.905423250405729,-0.391313353373768,-0.377391970490329,-1.04163066555304,-0.263276069101414,0.195071936015876,-0.354946476108509,-0.502972706509631,0.252270933757978,0.163365931484369,0.474238751165123,-0.0717738687434129,-0.0311856807918492,-0.142696068041257,0.0603670582394421
"8027",4.56156963307884,0.5690028502035,-0.910362022169704,1.40281662553517,-0.34636952606959,0.359351699916816,0.635921369457236,-0.230030456035952,-1.14781264531969,-0.229619057112929,0.241854885111754,-0.309362169438973,-0.191236969131295,0.0130885458134992,0.0315338665999498,-0.0171198067538301
"8029",-3.09030215037477,-1.28732748137847,0.184706827726137,0.719247121486977,-0.797680085200784,0.662639648921027,-0.473961261258284,0.668342144149571,0.277339813970153,-0.815370897473873,-0.13502773121604,0.281783451611315,0.145705407396581,-3.01694784588524e-05,-0.231402659876412,0.0573855869945349
"8033",2.92662601392821,0.200543974413742,0.648161007198066,-0.591763033328419,-0.621734317115084,-0.405434418698367,-0.869581017057628,-0.326415568880559,-0.699734015872154,-0.319660622401203,-0.0214830993341627,0.0709691291908276,-0.315284479706786,-0.00728508001223738,-0.108008956643485,0.0626744054920788
"8034",0.413308904824576,-0.5433054232701,0.719957148279593,1.74633487368914,-1.37227309493075,0.265891615525411,-0.386370285356648,-0.48548115436764,-0.569548353546839,-0.432356292438688,-0.82834929178396,0.667706890207337,0.181842315363841,-0.0663699118355118,0.0813515880374282,-0.140856830520836
"8035",-1.35051763617504,0.993913021563956,-0.248772643733845,-1.08414529609597,0.183529921992771,0.788036037623659,0.604410814914728,-0.737291056013114,-0.205675811861249,0.326650734448239,-0.386586903897454,-0.0969340965403467,-0.656548605928228,0.0249491645920004,-0.107650161282755,-0.155994744735854
"8036",-0.400850398738946,1.00886396947009,-0.8897346640316,0.0621241689156186,-0.14285247645164,0.205601930016019,0.20847768044698,0.635362707584149,-0.230145211941957,0.280670775738145,0.0499595027711799,0.130346383059415,0.0121916506262097,-0.381408253117935,0.0689682285681659,-0.0310249718903675
"8037",-9.00846172793239,1.35552688815839,0.658672473701787,-0.53120053732895,0.852844550568471,1.04125850160919,-0.329543973126758,-1.09039696610141,-0.270312647798901,0.223866777166469,0.233527451872407,0.722757054417241,0.429698371081668,-0.272195860522955,0.173527580968041,-0.0155044438135637
"8038",-7.13633012324209,1.18208967370437,-0.352903837051445,-0.055968660679509,0.168169706438867,0.526316842035051,-1.25341894155897,-0.158530874421782,-0.366705175477869,-0.521627994731202,0.1706767111691,-0.585022014328547,0.0750670595155343,-0.0770961562490793,0.0225376944162429,-0.0814634446873041
"8039",2.47677369263935,-0.572103225991099,0.188968752660121,0.616622884735159,1.0140930016765,-0.199851641094757,-0.607052054289364,0.660157903224339,0.219874494176316,-0.183659090435425,-0.256921900557035,0.0322362187107934,-0.0544316887613369,0.0835047923441072,-0.122345031294769,0.0624342110160207
"8040",-0.799184210734633,-1.06841122715994,1.56117430272196,-0.969959089064391,0.0131980755860563,-1.39599634282825,1.19967468955258,0.573353323132989,-0.0348800440271662,-0.0355257213485304,-0.0429354146455638,0.200280229356537,-0.200186798277018,-0.116325888730018,-0.113211685020919,-0.0763775168560066
"8041",4.49582204399283,0.749722483250871,-0.459005741920756,-0.168858199457271,0.243285459684516,-0.0663791385049097,0.264106543854712,0.00636458048088323,0.0470940530376895,0.11854893147864,-0.208642947655111,-0.107770986861747,-0.0255509516994885,0.106425700542131,0.146984321466459,-0.13877947920221
"8042",0.988961573108397,-0.0387712394312696,0.386125075256287,0.0156510142292066,-0.514890374518402,0.227453226189513,0.584335946352656,-0.87274316152933,-0.271011821253406,0.479985821997346,0.165581913278909,-0.177981388846127,0.065390965032285,-0.232614911109202,-0.0304567420689659,-0.150474692012902
"8043",2.02635257428434,0.826941947504093,0.157213755521595,-0.737810247061354,-0.857803199371693,0.0151841985827783,0.295355779407487,0.549862962066033,-0.257619155383098,-0.0464375350394287,0.000316429726077202,0.235923813968519,-0.301159432575492,-0.072667863188075,-0.131155615933086,-0.0289536369687509
"8046",-1.27553155002883,-0.308403888537583,0.247133443477463,0.0684541329662288,-0.255537185823804,-0.110420846380715,-0.525946101407117,-0.734893351255827,-0.544855695532009,-0.354552092075969,0.681730594231094,-0.0666163041463022,0.202937544709433,-0.277891931329653,-0.173876173429477,0.0882178844227352
"8048",-5.06711016646426,-0.511736206220548,0.56689517703501,-0.740018657848349,-1.23486365643659,-0.0917503573451894,-1.27097427956184,-0.296492308859822,-0.0553632536758401,0.461911052028521,0.796337919177838,0.537697297960667,0.34876667362877,0.0310023731041005,-0.133592702780461,-0.0771426141634654
"8049",-7.45941928709413,-1.36785594131688,1.98885182612735,-0.0594731181479156,0.46769168898539,0.247700555083732,0.321925611601034,0.686241432859775,-0.082295317353945,-0.061272502700425,-0.0634061571167892,0.397876175897469,0.606650078855566,-0.203480982618567,0.213390307780869,-0.00412042113674048
"8052",0.67707342308285,0.987144511845954,0.749201933448642,0.813706090123327,0.308306872888344,0.238972602187068,-0.144819671230182,-0.715258099723023,0.119015280800417,-0.512216412550973,-0.257730202833611,-0.0423535327525311,-0.0695805104135362,0.188771285383902,0.0719291239672315,-0.300400650023163
"8053",0.724753414418534,-0.180734552421405,0.0311929120002259,-0.166120656689083,1.13989388091477,-1.44598522943605,-0.51433472577218,0.0300929420293704,-0.0619961651690844,-0.103019957442006,-0.432161148363813,-0.312166394178052,0.139452919427277,0.0703749110239784,-0.193235953469935,-0.0952933654406299
"8055",3.00546128945342,1.06918175292142,0.240784777964614,0.635913494874909,0.651347541289033,0.519153336583999,0.0569567928664326,-0.246737326844717,0.259901672381762,0.0612669224687426,0.12978556677348,0.0553975080448019,0.325240146688681,0.0196219112518594,0.0354868453965763,-0.044085883357996
"8059",-11.5177921958383,1.02003113808849,-0.993135979623647,0.936885008550929,1.40255453100312,1.21677927253928,-0.130048354838671,0.65103047834801,-0.241899736490322,0.627366427294335,-0.582925078590457,0.34274965578288,0.365586628379825,0.761364287507958,0.00796355992971165,-0.0207420452223635
"8060",-0.802956903566126,-0.306092551904674,-0.706892352831464,-1.6800710439613,-0.739067158195866,0.113082112855913,-0.184485216773559,0.369804185713404,0.661902488713717,-0.159234844562741,-0.278052208485396,-0.160306890835987,0.0726645590202365,-0.122626417368995,-0.054413904613747,0.0455201884774329
"8061",-0.444108591192823,-1.39191842358762,1.14060963662088,-1.22527705677531,-0.976808095239026,1.00980459837958,0.16116790311126,0.862241510179394,0.761465301089268,0.48474838691808,0.236727419603597,0.0991421910232824,0.115532845287076,0.311567361767874,-0.0361136506274479,-0.16408575721449
"8064",-1.36957230776325,-0.271908460646986,1.2370610365553,-0.270508756079141,0.786885049295075,-0.130967529388104,0.271464940311013,-0.0460093705578212,-0.278832099258996,-0.39410377910615,0.0657604960726654,-0.325259064337879,-0.0804384047594198,0.0188277405706534,-0.402083458115769,0.125863608556429
"8067",2.58650170472235,-0.600473122447276,0.0100910997556776,1.16133460097771,-1.40618575276119,1.25201755873982,1.02153915718596,-0.225676015186091,0.176356115155444,-0.251084521124556,-0.294526330379989,-0.0194801591992306,-0.00382626279298537,-0.111540692787783,0.17832872823653,-0.0555011692964388
"8068",2.29543147497388,1.38060812654645,0.916164160780598,0.665801318091813,-0.665775774504084,0.742286515953935,0.0633843355682268,-0.0698421166061167,-0.9726688074568,0.780977402463848,-0.175018645260093,0.094512372154569,0.0244668333986648,0.369988549896717,0.130281459132115,-0.0642942402570034
"8069",-0.52010779164164,0.166785087351376,-0.116188227879906,0.168083884407255,-0.470049665240377,-0.482070493486914,0.17514900781662,-0.0422082283932275,-0.845005695891883,0.445824232497589,0.230861819406259,-0.0146693469000329,0.175660441982472,0.229885495152337,0.0364345371843304,0.0156103885999418
"8070",-5.40243249210368,1.33106008729954,0.1026378475307,0.103431595894678,0.296598524882756,0.262070009096114,0.204141745207896,-0.730629368986871,0.0601034454611989,0.0182785426438626,0.22019450295907,-0.0422783268433824,0.0349889960105793,0.459430910056765,-0.0211079802633311,-0.153585427452993
"8072",-2.69266860289745,0.637888098335832,-0.425575070927362,-1.05805827668427,0.592636414522261,-0.786332232862849,-0.935064271319907,0.347906587394269,-0.35679097106971,-0.539769761202683,-0.172017259522757,-0.488129436448116,0.135109850375617,0.168082014889462,-0.0129313453924749,0.0434348153453922
"8076",-4.33498613885074,-2.18359628156099,0.646031645783003,-0.537273516486239,0.037954236784239,1.01975231682582,-0.348381233393031,0.076786603284547,-0.311654330601051,-0.0433083244958668,0.201996181522805,-0.0549152451927582,-0.646572370485579,-0.147912183988932,-0.0784221513867192,0.215527392755414
"8078",2.68254479681339,-0.0852938089943128,0.298682649261002,0.0210221138604153,0.950269202535266,0.845905933428259,-0.134786193607209,0.00527653904383396,0.437083473721588,0.36547812892155,-0.156260100551901,0.0700864905610175,-0.114522593754233,-0.123602582858201,0.289610483508081,-0.0260275180094582
"8079",-0.567046015247679,0.593808237856631,1.0561416084961,1.09563083474592,-0.462354625951111,0.105904292233055,-0.596339750306416,0.77801628339587,0.172857095470103,0.780642876324178,-0.297961393531908,-0.0486051928315765,-0.28520518530062,0.407470474861117,0.0842966214897585,0.0501261382427615
"8080",-3.44410380809251,1.32398746327216,-0.516103338271526,1.24956582309287,-0.108328218086542,-0.243963305166506,0.41680786309977,0.275248005663637,-0.328951323279827,-0.24060199926349,0.266944667673023,0.0687080504769176,-0.25842440467833,0.364783347412872,0.0542057721248348,0.00819349463575369
"8081",1.17481843689098,0.539775054217948,-0.337302049371732,0.47977765788851,0.622228114039024,-1.1449721609288,0.00709184854275226,0.0272126865751312,0.261378724847345,-0.237010584822877,0.220040371029445,0.493240815541771,-0.143302650600805,0.0117266099365202,-0.180368014684674,-0.0042023382589789
"8083",-2.7306915665191,-0.205609050130587,-0.490046934410726,0.207791263662444,-0.125339658378853,0.34694420794347,0.335764671276367,-0.0451452939197701,0.0942051182220213,-0.0370829165178101,-0.119396376223368,-0.775899617827142,-0.141173510410774,-0.240049839453923,0.161296681839731,-0.208270540297356
"8084",-1.43309789186205,0.128403330184563,-0.825119799300361,-0.33020069146925,-0.143546890176005,-0.198255384349182,-0.23054539536815,0.227865399651767,0.00168997238712602,0.0629693734660218,0.00260532126960146,-0.0305000573879061,0.65774857938598,-0.160124128747072,-0.134325321655002,-0.10107604203052
"8087",2.14485954688468,1.18545430751678,0.118776062165918,0.768123992390287,1.32246843514419,0.547016765006128,-0.107423741354352,0.406974954007524,0.140037874793652,0.101663716049796,-0.128892183690971,0.127682777418461,0.445617458338069,0.0018283692922223,0.136062094992696,0.060565736253999
"8088",1.9700674872395,0.382895671927612,0.387481008033876,-0.223306873506065,1.12532051397624,-0.135631534562538,0.145775105633802,0.0979045784395758,0.109562553969311,-0.0329353368486924,-0.0925559286895872,-0.00357437232509546,0.0564676204644952,0.21122485135797,-0.18195853882994,0.000276427406143118
"8089",-1.85295981625057,1.09665032004999,0.794049209788688,-0.33786672994881,0.279652574349315,-1.07470436371144,-0.918141330144007,-1.23360126841518,0.563174566903551,-0.0734418198873968,-0.418554660782285,0.450205777831072,-0.390918047419608,0.0247958295948708,0.0948710441572586,-0.0111649907874884
"8090",1.88255035350199,0.447782153197325,0.503930477925183,-0.223698437232522,0.267523828175474,1.54122902316952,0.290097022852289,-0.613709518773765,0.0408460136310103,-0.356279507468457,0.0548189886400477,0.165935092515076,0.192371780108229,-0.0471385821961339,0.0173905309909714,0.0694297335039791
"8092",2.20098149834108,1.22311412687047,0.71907986744349,-0.0401157702048834,0.121363094670427,0.645464888390334,0.868000055468166,-0.806861429075185,-0.292624060462706,-0.370528411371831,-0.585878996610755,0.229072115786039,0.0917034683085974,-0.318228799164177,-0.178133750172111,-0.0894464435698994
"8093",2.52875335147823,1.25826781317164,0.972331312558203,-0.845369072454701,0.553058088926427,1.15732068116555,-1.17426186322426,-0.60232720176977,-0.798298763466352,0.664100268767775,-0.0040674515678859,-0.0543287326946075,0.704016000299886,-0.115316121239634,-0.0697006194367674,-0.167190974733283
"8094",2.17078094179413,-0.28606826443528,-0.185975233847732,0.911708803252395,0.980822979943351,0.185277029408266,0.273243529322196,-0.147894109293599,-0.132992764924002,0.460113568648824,-0.134165719302904,-0.160886364801062,0.125039384319342,-0.369799254692538,-0.201343425162702,-0.144947202627501
"8095",-0.482890778039423,0.67732138858108,-1.83704621007639,0.200259896864259,-1.05779781867529,0.126774656773744,-1.1397249319553,0.0992707605964049,-0.181163301937217,-0.10212117896134,0.052937041843645,0.285172955290887,0.128486971340544,0.117875719635879,-0.00761717763420482,0.139029186796574
"8096",0.338472633906908,0.637336964098116,-0.821650609084741,0.487013602277298,-0.209159571285524,-0.5176759091319,-0.550709598228438,0.141777180401672,0.179616101632913,-0.469943929797393,-0.244422994866428,-0.0079671014112959,0.305272237703196,-0.0328384432618586,-0.272335311784687,0.0608756135123977
"8099",-3.19728244945743,0.784784742278992,-0.0914236527025308,0.708601974054307,-0.689847781187981,-0.0205497234072782,0.506056286600969,-0.22629144693747,1.04153554709129,-0.133062954142205,0.916995856429326,0.161798078724197,0.429086213557501,0.164570045518869,-0.19756819496778,0.0228648013384017
"8100",1.08021881615456,0.853238368639753,-0.116424422857059,0.984832183152971,0.355441857981905,-0.0632825700501187,0.245911019025805,0.208376361431452,0.213072322043688,0.296660555649612,-0.0648645217640094,0.178112055037427,-0.322388206349345,-0.0660781434576287,-0.0886939251227772,0.0269890868388063
"8101",7.80447473326654,0.794230783055117,0.0664061691765002,-0.133897719649015,0.207228063363263,0.143510229168623,-0.0653791024368421,0.136058436249547,0.384371114036942,0.12730908119026,-0.169953204990548,-0.202749828220884,-0.144445344851348,0.169350311237648,-0.0291216672817711,-0.0567712021332157
"8102",2.64088858971796,-0.031784961543349,0.114157752983704,-1.2194560446613,0.370716202550064,-1.17362999825825,-0.0965456853691463,-0.598573786859301,-0.84664301854804,-0.190312610658566,0.24251951169023,-0.222066166536231,0.325557543480589,0.885194405191334,-0.212923058618121,-0.112196990428319
"8103",0.831024304999959,1.83221168829434,-0.00772639022093376,-0.258637723624551,-0.0247633227374894,-0.0363940282361101,-0.273579210181366,0.192905780651628,0.291652987320043,-0.247411230315525,-0.443153386217026,-0.0667148756936351,-0.320613743867545,0.153012166166624,0.0406846395919706,-0.0497741553191518
"8104",2.37121580258629,-0.46934851182699,-0.170573984750405,0.224065797871656,-0.193743880315104,-0.916264549637878,-0.246736342565775,-0.380492903114161,0.0757664177125266,-0.247901231519491,0.767589674290259,0.122635797061659,-0.197715063675001,-0.138549272536885,0.0548505978030594,-0.0237487568234654
"8105",-2.47069749032512,-0.586608039084239,-0.275415324227617,0.272828612848745,-0.215607478000629,0.34574006078507,-0.316368150258209,-0.0904465969207738,-0.414798069209835,0.0960065264553035,-0.539074844236702,0.145887177621981,-0.342646791924489,-0.488020410168614,0.298141036835408,0.178189761433105
"8106",2.87737187411032,0.239247777965053,-0.55342847155424,0.361683932274424,-0.636250870452792,0.0181127346694297,0.143524244961315,0.589106654977137,0.127259599745642,-0.093915839891322,-0.106096623360537,-0.276738220092927,-0.0313426966870618,0.0587906870651054,0.0144988996975252,-0.0763444265191717
"8107",1.05437446557155,-2.14150548163615,1.81881851191208,-0.228075118868874,0.393892367890458,0.384684119781969,0.214359729501887,0.585264200639023,0.352258430004485,0.0207999523784507,-0.092219088367687,0.0543690955597504,-0.253708420820191,-0.0782866430050924,0.157424902082659,-0.0286400604026798
"8109",-2.76446976842779,-2.53253563452238,-0.80056828332319,-1.77305790224643,1.71658922140315,0.037522129933371,0.910983286340268,-0.906100033744143,0.0194279476118661,-0.927502229079436,-0.513414541069603,1.24088414643043,-0.123452178003787,0.235971320149597,-0.316822710793796,0.188956982143532
"8110",2.17661161877717,0.890913105574475,-0.255073164228869,0.3714116008571,-0.746490752550001,-0.597673685555515,0.366979555484964,0.135011794014113,-0.268804070248714,-0.0159416823808611,0.402861664893683,0.298951365781705,-0.00998714301971127,0.162821010245862,-0.19919409479367,-0.0919638453694951
"8112",-5.34768414563644,-0.88527249330743,-0.940832655923147,-1.42613183893616,-0.204690913697211,-0.157024146779361,-0.544520628222847,-0.0121888802683235,-0.251920891311142,0.0148449501580225,0.0204555016394621,-0.55335434896073,-0.28456612234677,0.476522664919245,-0.138424247559014,-0.243865224774545
"8115",5.92297014951533,-0.374755292783421,-0.177650181782627,-0.165568848569064,1.42673478120038,-0.583440014084862,0.458004020878759,1.00014780821485,0.189496465512436,0.569946190047152,-0.0104090670115505,0.135732824470665,0.112672194597699,-0.0750306199941572,-0.16305185108575,-0.0920556358956308
"8116",-2.78486615758012,-0.0629946565153756,1.61598259259613,-0.00333008167044324,1.4857169087852,-0.205879837884305,-0.415514079735132,0.217432194508486,0.422923160865824,-0.272983129856109,0.518374490013696,-0.0669355899668354,-0.0067736112171868,0.397823582060175,0.248624196469046,0.202753890788789
"8117",-1.09123458247618,-1.01262491688436,-0.0108998168186304,1.15227080136708,-0.118971842636399,-0.556819370733412,-0.0069042767933328,-0.464243701917965,-0.154667413155466,-0.319729491857262,-1.00702704192782,0.686700499072003,0.805413560337253,-0.204589976697209,0.206858236359607,0.191592598525835
"8118",-4.04784176789554,0.171182835238939,-0.545442434162433,1.81171166960113,0.178277923095282,-0.0576527154956959,-0.257311952944566,-0.447046882087981,-0.216420716937173,-0.12155868543019,0.0870203458141362,-0.300396176895553,0.00455765081504635,-0.11827743881085,-0.274744672457237,-0.123500359599731
"8119",4.48098292090981,-1.1014640025534,-0.39025209825611,-0.595611627614022,-0.776361955992981,0.219679016385579,0.78668261170569,-0.178027617308266,0.0419635381586959,-0.183475242485928,-0.102816939362564,0.0616683549517965,0.2049427051699,0.170802240870175,0.207007004071743,-0.0708958934226534
"8120",-1.87062605288663,-0.0326525682046225,-0.0768267765462554,0.990318145223835,-0.426470729357111,0.427036764539588,-0.371959714950877,-0.300169814866705,0.242044442510546,0.0522263867660292,0.302496292467809,-0.415023487144482,-0.193019952362841,0.379132734936338,0.0206123883176967,-0.0806087171347917
"8121",0.0670337080649192,-0.588672729444059,-0.936029201328812,0.0362964761403046,-1.06278176926777,-0.170343702806781,0.178844023851564,0.482148628332954,-0.0890513285115118,-0.145715907363682,0.0689539241009426,0.243919135965469,-0.175452202785022,-0.0751534515422649,0.0179058910777647,0.032472863724001
"8122",-0.150187352470995,0.216240115751948,-0.863806424979647,0.75129478123327,-0.17637887375921,-0.602329330276172,0.812507966082126,0.106473837353256,-0.271048110427336,-0.91692173812637,-0.409681435460957,-0.589759704966253,-0.135972793099958,-0.339152867162494,-0.0586018565126447,-0.092924023242122
"8123",2.26979605416768,-0.292442168628845,0.149294628668747,0.34699959085725,0.557665087733298,-0.468361687759279,0.355513109003905,0.340996805619304,0.185168574304317,0.505308842726024,0.361568860731098,-0.258628417563364,-0.355624264219879,-0.296563945158661,-0.143387462283476,0.0542436075961096
"8124",-2.21378770351803,-2.25711855990771,-0.261622515415153,-0.326450729515521,0.865105534430979,-0.244620774013993,-0.110516089859484,0.457309285219825,-1.39048207147824,0.346075854333374,-0.424838426913072,-0.437349832647652,0.12528733550203,0.623821703437132,0.0232710838282502,-0.204132158300892
"8126",3.81378928129724,-0.125284342386406,-0.318608109642632,-0.610836012601369,0.782880319083571,0.244419208457288,0.152502061557711,0.0913110462868074,0.0073199674778574,-0.614484288780505,-0.160576416437392,0.295060262758578,0.113897486824824,0.0868958968498167,0.169385291030442,-0.0121573663969894
"8128",-2.80978634104937,1.6645282367899,0.639873735332127,0.332303924638155,-0.626510437409248,-0.262197057315255,-0.463631352282983,-0.674190806915211,-0.057482664688772,0.32374840996268,0.341157443856288,0.246198457700621,-0.120180539417125,-0.474707327998638,0.142608453092857,0.0813318669121204
"8130",-0.00965359175639122,1.34787141109194,-0.406966900427182,-0.503303688091519,0.87382043377699,-0.249120303727273,1.09569885584352,0.0504413695294285,0.454873624142437,-0.0154573440183576,-0.329610343737746,-0.445251959998717,0.266764963981246,0.225571520925257,-0.168023543510178,0.0289880538979645
"8131",1.12291661246692,0.829194012726484,0.359407963503176,-0.432463302247854,0.24582055464347,0.230570839492252,0.0789360985367356,-0.128686961089868,0.0725425995551604,0.0143685363607518,0.636129048394691,0.380589160221222,-0.568852007036917,-0.186608393884108,0.146753423202836,-0.19718404445301
"8132",3.64984290378589,0.765403395530403,-0.234275726484112,-0.786921693034123,-0.381174466934024,-0.0186884418288276,-0.190613456349267,0.148869626893008,-0.699609056779697,-0.385070793823185,0.0675395949466961,0.0904042964955539,-0.267876766743799,-0.632053472493855,-0.100477605161508,-0.0826683291583056
"8134",-2.16088126224154,-0.364456245020961,-0.167899074352812,-0.696726227062877,0.2079198796892,0.102897935362919,-1.09228332049727,-0.505172993263702,-0.17705400625211,-0.485340769701419,-0.0678451120449957,0.300109105602357,-0.146588638907261,-0.353523902632138,-0.123235815027183,-0.143531016434884
"8136",-2.37933518865577,1.0558384707222,-1.75057346273115,-0.700528942079863,0.494241806432975,0.351055894916559,-1.02724400597524,-0.381433747378896,0.0644188542142812,-0.160980921441552,-0.10859492691814,0.329325485115778,-0.296614370636155,-0.347543763695098,0.182686539728392,-0.10674870317873
"8138",3.94448463854736,-0.309698921018092,-0.923725459353994,0.320402442473408,0.128158892093697,0.131832598928164,-0.530314443200557,0.472021271246159,0.105933547067687,0.295213314205506,0.229807454458757,0.158421128546353,-0.334982781197881,-0.0697406478093267,-0.034368703885756,0.0544008712573389
"8141",-2.50732406776105,-1.95336198869453,0.827175499399275,-0.68741270359317,-0.440428405121619,0.0219955180895986,-0.529257699177738,0.184595722325833,0.135927277432438,-0.0266724055232357,0.21911022866876,-0.148464037933001,-0.236077258523558,0.201705273714041,0.0900388464012158,-0.0546449252171891
"8144",-0.755886367895188,-1.47722749159843,-1.01606223397676,0.463582044905208,-0.527365654098603,0.165203764814884,-1.15957474006193,0.0648434298605409,0.44765094210145,-0.218817913634429,0.0297960478688995,-0.0773668149721519,0.543185643335734,-0.259457225929107,0.0703547106761422,0.0996666446210061
"8145",-1.71774252106541,-1.22442195417767,-0.0097585664955222,0.193473530510099,-0.221718672678563,-0.233679150121573,-0.41574941552967,0.0852869715660574,-0.136802455038954,-0.0625778672948871,-0.175392611202111,-0.418213040272382,-0.140258006676288,-0.168904702909638,0.178157916800478,0.0357103778965187
"8146",-4.70772115071179,0.16210871594932,-0.558155702237628,-0.421449081383689,0.485452993448872,0.0181651680383489,0.498386997200671,0.770490297529932,0.0136609975830036,-0.403384014420896,-0.702320804522979,-0.779735138577252,-0.111540985413336,-0.62854424141523,0.0186302212425016,-0.00543535415372376
"8147",-2.43324505661771,0.209047333773682,-0.233622134177906,-0.954705870211901,-0.447060560621148,-0.0169937452857583,-0.0571996109679635,-0.022027773235535,0.340454294258016,0.252403657894366,-0.213586568202102,-0.413256223467958,0.208485428229214,0.0129730422045402,-0.00129636968053795,0.1296083193089
"8158",0.389543346821411,2.19581723065391,0.970523472774896,0.118721466948604,-0.0162341022300171,0.467204805030006,0.433569211997344,0.541030731702369,-0.357749002431409,-0.522089109393055,0.230623867226792,-0.122933563897905,0.102564484660296,-0.0142017062605987,0.157049313135712,0.0706902434158926
"8159",-1.28054749124803,-0.107848972857789,-0.959212234216103,1.70238950140997,0.670208263362486,-0.387901984152016,0.313521260937781,-0.109676322742429,0.362429448184022,0.428487471434038,0.0915287459665326,0.209671490929783,-0.487239171665971,0.081839560515556,0.191742346216577,0.201343025509688
"8161",5.16385103557666,-1.04314938632934,0.453246816369898,0.022034454720757,-0.00405254511285796,1.03550685573326,-0.713315120678961,0.279171685287419,0.367657960454169,0.00473706600382613,-0.213742131605552,0.121549870698267,0.0106200472145162,-0.159408585589319,-0.0646596445908802,0.175647366653242
"8163",1.1742472574188,-0.334849530302514,2.2367171786688,0.762050104703966,0.126896060293652,-0.508607852892498,-0.296402159277812,0.0457620905017638,0.334835421243902,0.475221980850753,0.371747135436064,-0.714880736649544,-0.0432188809470786,0.180393822330954,0.154866299024622,-0.153453262221644
"8166",-9.35030096600954,-1.36792656800595,-0.970287484766407,2.2830819436653,0.775936754702226,-0.181950721074264,0.633074816069273,0.553885152913485,-0.954579238027413,-0.489963139387385,0.373492971037862,0.279002367744359,0.301224161303241,0.155562481136852,-0.366281358811407,-0.441390890129662
"8167",0.770376572769553,0.456311743183037,0.229648173238677,0.343653759641416,-1.29859794456243,-0.701243084928776,-0.00359550435839413,1.39401470495274,-0.211889975840896,0.328574575970689,-0.111629511477365,0.584850436073502,0.393282457548544,-0.240881135073849,0.476936585882226,0.0796268620526147
"8168",7.10386997582102,-0.207631446411016,0.032074115737958,0.495560428794904,0.185465095001582,0.548788793388216,-0.163527645621178,0.00987435524034574,0.471496240438309,0.180617911721654,-0.208021616799285,0.241418808974883,-0.175206173478762,0.0718629087793481,-0.0929475913863441,-0.149231650223479
"8169",1.23503688341286,0.668180663474932,1.91800865367414,-0.774857475850029,0.144696871641274,-0.255478693218457,0.725931322609635,0.10835841767126,-0.423854855963985,0.205828250154013,0.0178915186795955,-0.175494942693258,0.0201016768058049,-0.231274044972571,-0.0594253766747344,-0.191747958496662
"8170",2.05578961197012,0.256514985216493,0.982088242046035,0.0759129547572862,-0.580982715114951,0.358994851958373,0.322006452138998,0.164684474186506,-0.438992923887222,-0.673113926917344,0.135172022477191,0.214214004050399,0.12270341778196,0.078508841056789,0.0829612697758064,0.0598821890216793
"8172",1.46414420029284,-1.88780330201124,-0.161335822051571,-0.777163601292244,-0.381873956815459,-0.223950106057066,0.401765604035798,0.574260680009827,0.224918825647204,-0.486056674469127,0.495611490743979,0.431736273246441,0.309974310312966,0.371840251589471,0.169347235578709,0.258891923508439
"8173",1.20894005650561,-0.567396202774356,-0.459603930104299,-0.575700566684963,-0.840762593922441,-0.603383599195658,0.698135856874496,-0.0903614606959661,0.191897904587145,0.217056433864,0.0574126404974766,0.0817793846691069,0.291574163607594,0.0722969027868239,0.352079792838468,-0.126735002716023
"8174",-1.16516727424355,0.481555020835194,-0.158686968864911,0.0425735907110585,-0.97734148023644,-0.543047678426538,-0.145988863237595,-0.0234241321550869,-0.0489549833370303,0.453772301077619,0.0510561059908721,-0.215500578084595,-0.484216338639837,0.0352067910268361,-0.151040109938299,-0.068989195923296
"8175",1.31840810821135,0.564642963531846,-0.32425165260605,-0.0879825404396959,-1.53319256165227,-0.520326789796567,-0.536657632965957,-0.0448070979109057,0.0053503155399234,-0.401133130542611,-0.439742306086328,-0.148681077248986,0.131888777597906,-0.322320500714558,-0.114127963779871,-0.0158629361773486
"8176",-1.8985285384,1.18800335741598,-0.630615421297457,-0.797240909229053,-0.9456003996819,0.241701021399211,0.229117861243152,0.0542070909772536,0.195207844523203,-0.446745921374798,0.291120167994293,-0.422369993691624,-0.0338158851508958,-0.113654579878115,-0.214267724476394,-0.024298079645581
"8179",2.11707251427921,-0.528584565708886,-0.804934063009301,-0.557280502243052,1.58600126178509,-0.275173044368073,0.623370600416047,0.80135441654486,0.365063966010387,0.0663212383095812,-0.671138463270664,-0.309736745001796,0.0350923951123247,-0.265457788318313,-0.0712903366566166,-0.155243726260685
"8182",-1.92188508482397,-0.172306419765287,-0.918317148086809,-0.920217744714359,-0.604103332513512,-0.0602730302252222,0.776761982124879,-0.246988827059485,0.441413890122312,0.155961770269613,-0.0947725907115518,-0.0215403032045673,-0.313633101579268,0.262340312043366,-0.156248117065927,0.143977743845107
"8184",3.36509763244026,0.34160876043677,-0.914953388715297,-0.615838289623263,0.287266496263754,-0.512038486882182,-0.416329693940161,0.483865621830871,-0.447923593585485,-0.0283799245539311,0.283888726665034,0.33254706614703,0.0194500941863909,-0.2698102871207,0.0642287016817062,-0.194737346090291
"8185",2.50844913911472,1.41063527787417,-0.864713586048328,-1.01046208883755,0.0134956262192404,-0.0496649597093004,-0.013363252969367,0.328819288652454,-0.175296671121358,-0.310427907228066,0.197958030083746,0.549551253195221,-0.181926347225738,0.0177924735264306,0.0599813474611459,-0.0152831489775478
"8187",3.12867389759181,-1.24165500254738,-0.109654736459183,1.01162909505389,-1.20350780881857,0.528304126944931,-0.165613984986824,0.0222076841147624,0.17553278282783,-0.931187957369138,-0.421531836549586,0.30854943915111,0.0956651304318331,-0.0172074225605633,-0.126961745881125,-0.122708237633566
"8190",-1.62677911336488,-0.204407751787519,0.824781462008645,0.547877914056984,-0.0284574216171383,1.24891583509819,-0.0249150359325084,0.656834517779767,-0.113827293060722,0.0569337787201024,-0.0211925161993268,0.00546199195223316,-0.504850975242436,0.0188308446052901,0.0562522424779202,-0.0205620816432298
"8192",3.45098595569123,-0.233441963025005,-0.300636785607849,-1.19894718552604,-1.1939474962087,-0.272277712057604,0.0712395067593966,0.336921124839874,0.1473377019276,0.591653947579377,-0.0865364170506439,-0.445256278961181,0.231931102329488,-0.186007740573898,0.101715627948247,0.10514008878923
"8193",4.73411914593449,1.34030537788431,0.168308086063623,0.0318568527625988,0.0408785814768522,-0.419106226833584,0.0338801707710032,-0.0270756667153713,0.0554975659418157,-0.537237561616248,-0.681838534843428,0.347836818667811,-0.203541585620672,0.0978517813007735,0.0617746215209424,-0.179023623539051
"8196",3.20050755631143,-0.405282554792289,0.483452736914426,-1.1889371866621,0.897956453626118,0.0194289206023141,-0.526209176004784,0.305387736478353,-0.937464423400408,-0.0454359934775304,0.106140359699287,-0.0540173874629201,0.588685955787839,-0.161565672693357,0.0281408571123597,-0.0251131672393661
"8197",-1.10853843181809,1.18153765675295,0.479117471483618,-0.0407464242735523,0.636494085448377,-0.0921313074703067,0.105075710050525,0.344396340060333,0.0638955823911347,0.197089680940871,-0.248585830566345,-0.0412129758760445,-0.151117939925674,-0.0653829531169256,0.0201744843301381,-0.288805367766904
"8198",-1.48135126381091,0.948560740268645,-0.380737961426774,-0.776291857791906,-0.0840220342448473,-0.569324551953499,0.497099141946232,-0.0712876065569323,0.416952965799688,0.327938739846169,-0.000746288692440117,0.128863973699126,0.177967010391367,-0.495456299149643,-0.0718623867575136,0.071945326640687
"8199",1.58561220118308,-0.860625479368641,0.11216636765052,0.358807538182676,0.781547087196491,0.78937095595796,-0.455563440445366,-0.181633481868065,-0.0707701427424133,0.695436144089694,0.331744838966141,-0.0164377934518409,-0.31506045857302,-0.139990191004417,0.251418467536717,0.0679225432401969
"8200",3.48093194110664,-1.00672177663142,0.723647264699382,0.693682554033491,0.244544900122194,0.112127691366216,-0.647394751219504,-0.305436756739225,-0.142845944348421,-0.151700131718827,0.0563009138950493,-0.216496957534721,0.276394473834226,-0.282202422960139,-0.0503653160539904,0.249696883708439
"8201",1.21000300296993,-1.84145862494071,1.02169078516223,0.237545475074771,0.253394979943488,-0.367155423285901,-0.201314500764812,0.6499549452387,-0.122636391519741,0.429108496507825,-0.229366465091448,-0.228673803701462,-0.342441937831128,-0.276040820347339,0.122843890863847,0.120775559534971
"8202",-1.11082122684851,-0.547703091897586,0.145950680970483,0.0810426636294842,-0.913987544519488,0.337752378407501,1.10781111033876,0.629757584068263,-0.39592636588159,-0.410448039904205,-0.210331754402454,-0.107367600647149,-0.197336054294244,0.077298477813168,0.207553607643065,-0.031610237961578
"8203",-2.89505641642242,0.969722616049667,-2.14486072623764,-1.12772687708892,0.492553814354342,0.542173940703776,-1.55980257319979,0.0798114666013856,0.797668265025639,0.260983673765963,-0.561126301155026,-0.102901808877786,-0.333384515614212,0.0755775684771993,0.205180900099362,-0.0357390878515446
"8204",-4.10784769142935,-0.3403157941978,-0.381965436790317,0.983096405917186,-0.59005763475206,-0.30529180155369,0.193744974131511,0.0238776506809505,0.16850338044677,0.447598057874576,0.126443917293228,-0.201390150351021,-0.00144400532674865,0.00483306127313676,-0.354608062021266,0.262307047267816
"8206",5.77311431155324,0.863540960528496,-0.316855016496446,0.423646049560031,0.873162119979768,0.24955991223907,0.109657293907834,-0.0431701159422442,0.458348466991965,-0.0725243956272763,0.0669781796395549,0.272304956458473,0.359635200009104,-0.338136317311502,-0.130945879625533,-0.00230114637257513
"8208",4.49860363378574,-0.655487815929249,0.364805851927085,-0.0268374398790251,-0.665960398490809,0.431825687336975,0.759985609273538,-0.563224941090275,0.376914861611797,-0.108435996293362,0.100030749495865,-0.0782748460306067,0.146797694641074,0.258951362896926,-0.00969249793370926,-0.127938388124763
"8209",1.27203733400717,-0.451567931784325,0.114117199520122,-0.0757902940478395,-0.924152742099212,-0.0774217165826011,-0.181719882139784,0.327694289746099,-1.01397298337306,0.0752407793112654,-0.259973146034957,0.0302948607924529,-0.155309718293502,0.525569037901802,-0.22225513930268,0.190038532607658
"8212",-0.380737816009039,-2.41731145709073,-1.18584382557871,1.17891684330151,-0.786890715520189,0.28449549639806,0.377549518441517,-0.314403125075485,-0.439883409136848,0.397311390304192,-0.340808415434904,-0.353507996641828,-0.479848836155048,-0.00920873005195694,0.135828936273279,-0.18494148517748
"8214",4.74509852530766,1.12792176829385,1.1323123362923,1.09652301611061,0.350090075648052,-0.0965604349216764,0.0427388079872806,-0.42863494083642,0.134905616597483,-0.292224232624495,-0.157164206758704,0.0588314200188975,-0.0113319471195183,0.0440700656152062,0.0600263451279382,-0.135134860929227
"8217",-2.52342826920277,0.22668855919493,-0.470897839955868,2.29665413100327,0.353479063230518,-0.651737034597908,0.962430729292925,-0.367753675713882,0.725700651853777,0.603380475389803,0.288690705615359,0.380002169623878,0.164867433555346,0.164067330615929,0.0672158129180634,0.0245102020541535
"8218",-0.565928643799054,0.145261581474757,-0.269697121033787,1.89413400386068,0.292206307173568,-0.544768767820761,-0.157189094230252,0.238193029192231,-0.0506804124279546,-0.236063061644569,0.117557052622528,-0.626184268576936,0.365208703261538,-0.254442167360318,-0.211046462737304,0.213056691715247
"8219",2.08670502137782,0.135920289640103,-0.3921670303915,0.427232566770883,0.363829087961767,-0.805528050920571,0.61968297231828,-0.100340172555648,-0.0802909499325361,-0.0594596206054391,0.165976359315131,0.126722275851248,0.0951633445166356,-0.245171699033229,-0.48394151357594,-0.00130879678938371
"8220",0.297520215473659,0.262740098944886,-1.22278492601588,-0.384783846024391,0.289133326256795,-0.525205207922914,0.012188772997883,-0.00363661846391606,0.224576359186095,0.29587894696126,0.381389167742777,0.702909197116673,0.177194831640942,0.0483480915857586,-0.167015377541192,-0.0310283162930035
"8221",4.61416122057778,0.478731294472159,0.45563861984204,-0.672053521958092,0.170948658477697,0.275617924949193,-0.203990527329444,-0.41900092557947,0.309210067501201,0.298879261488722,0.480371111045816,-0.253268371157251,-0.175634828368349,0.0721182241191077,-0.0703276282152303,-0.137108738060874
"8223",5.73808574853954,0.371409237987701,0.158243330184258,0.398437034163937,0.570664512411155,0.479337919792555,-0.0535536830101909,0.127048633737584,0.128645504712243,-0.218504281364972,-0.0684697909651915,0.0650443436965527,0.494411449142367,0.182792621498318,0.0263676257190506,0.0778995211529136
"8225",-4.83739325794097,-1.70515718476454,-0.916045319704907,-0.352999992733038,-0.846792093653677,0.873028059911981,0.83656193397597,0.370305696017991,-0.460892080746004,0.870821550180993,0.334409298915553,-0.315586364586931,0.450687949273449,-0.296033237420297,-0.270197275875631,-0.131873261785029
"8226",-1.67763864563989,-1.76188242305153,-0.308277830663025,0.179211365952842,0.256940298054083,-0.716697252955167,-0.0952714810173617,-0.212654038212779,0.0181067200138206,0.100517721349471,-0.142835748140475,0.325572997527038,-0.168615575564356,-0.247349618657258,0.0969981091557167,-0.0379573469022941
"8228",0.511256811314645,1.35942481063101,-0.847592682795407,0.405361178686871,0.533380183121882,0.193402337655881,-0.352888805578298,0.0205275854841943,-0.122971479481583,0.188149475133101,-0.0797413455600471,-0.318982034148466,0.0720472421853622,-0.0615649722475579,-0.218995478675793,0.108290450975379
"8229",-4.60191896585474,-0.481590244458566,-1.33420559763077,0.898168356831407,0.17095163381713,0.875279503912415,1.38858128946949,0.256320450658357,0.48729576392608,-0.358330176129102,0.0942301663915417,0.0494863529538868,-0.430915696211984,-0.211165986731552,0.0438468594024134,0.0946858803885295
"8231",-4.40360759173126,-2.2071490504142,-0.640088561417599,0.992076992849292,-0.320136457523489,0.210032080761965,0.488415329086056,-0.800007623268439,0.708356771756479,0.263668836174556,-0.367858734059505,-0.218614027502997,-0.239360144377381,-0.2448419388786,-0.1073308832905,0.0658143435551226
"8234",2.08243420190404,0.0701494357215019,-1.09832883466011,-0.642397447075724,0.237995051435709,-0.366074897487279,-0.103090610467447,1.04795545547708,0.256301589109953,0.302941810738947,0.319003726210293,0.497178553639873,0.104728757130047,0.349440467625359,-0.0495985649192957,0.0235918527065153
"8235",0.493505553190817,0.87686329115202,-0.75021574684383,-0.758239591075301,-0.345343683459043,0.688365616808771,0.802727928427711,0.49396157224624,-0.120967548708541,-0.521946000519132,0.0051315945973103,-0.385594854517378,0.233470652306481,0.180200531771548,0.268048054526614,-0.040628222428873
"8236",7.23251413162099,-0.480940843838155,0.035691287891965,0.415924836021467,0.78822162931551,0.77610147059939,-0.562292419046491,0.251206990946395,0.326933353845617,-0.345032954810821,0.241113948008888,0.0406953097483048,-0.135519684468671,-0.00533069869058767,0.0948064543862555,-0.00559869720986611
"8241",3.09523608339186,-0.179016833351967,-0.266698250994419,0.33132641470918,0.149573346927006,0.363888848205113,-0.722817161628545,0.0968221607620982,-0.110240521535299,0.0929189924178651,0.0178794637935342,0.0887460893204486,-0.109903178777066,-0.0870018226203519,0.111818665094057,0.165830261128851
"8245",2.0765498951196,-0.821577439983702,-0.234003727043946,-0.216618457029558,0.201579971449243,-1.34800005800919,0.185742505797549,0.192659860174963,0.0886980540808977,-0.724998214776496,0.0805734685483679,0.253034575161764,-0.43261667069272,0.210450212673178,0.123136796914428,0.0600406008865322
"8248",-3.13281403196278,1.03860268983049,0.00713060526387632,0.104988744547004,-0.693983677499225,-0.0657817342677452,-0.105362512028656,0.237532742674439,-0.0428217270598527,0.00253230866280719,-0.638496121135762,-0.173073809228752,0.204982903363692,0.25240580176267,0.00964314134265726,0.0837163095532284
"8250",0.924091630021948,-0.352321365815055,-0.568294856037261,0.20946717314724,-0.622359195675534,-1.04353949273909,0.148706146679356,-0.531425521713489,0.290812150758698,-0.142291984308513,-0.842969564438304,-0.14812877441256,0.322966926229693,0.191073472371948,0.0621544113086537,0.108311689569868
"8251",0.759926090313771,0.0448349598251352,-0.968417858548287,-0.684349987332877,-1.07865490294156,-0.301904448795525,0.773812309425186,0.439133716766774,0.212622638082455,0.426412674422195,-0.679292579519986,0.0834195992851854,0.0325592611546753,0.213692244259086,-0.0853107814314353,0.0783261110750719
"8252",-0.242752884372737,1.22296253557329,0.223502293592085,-1.00266946216571,-0.375472506913044,0.769338294187133,-0.0262902802321497,0.128330732346372,-0.645392371788501,-0.271396747442842,-0.190450499512769,-0.278689746014651,0.160021292506402,-0.208089368155651,0.00940919770875174,0.0993888958101172
"8254",-1.04615408208711,0.646092788826765,1.14633799186871,0.0667751690604181,-1.19969402641191,-0.641606933268223,0.0652692396607208,-0.467597560643556,0.722339429506694,-0.186149305213313,0.0532365729366938,-0.0840357868723055,-0.0749658820658645,-0.243974354623489,-0.00566469567465405,-0.164175941640119
"8255",-1.41633294124174,1.64526457043365,0.919450049483896,0.676589574541746,-0.475567612477466,-0.71209800171501,-0.134767157964368,0.338581877421682,0.000975143819591018,0.353387747746932,-0.10956369775449,0.0433297005867283,-0.138500325833151,0.0719030187007549,0.154121530790034,-0.0965876260808111
"8256",-2.10586083460077,0.282262686689097,0.754208951792065,0.12329292640078,-0.48646321605383,-0.0737279835664682,-0.202454594510236,-0.282594827218051,0.801745759857578,-0.00912309204914451,-0.151618817695084,-0.616734578935877,-0.164955245666566,-0.183300794510084,-0.0714003072607923,0.008315990797331
"8258",-0.988103945139282,1.58731629625805,-0.120778354804843,0.93514893159912,-0.430305199363434,0.137265360300668,0.0607562293672169,-1.10970093511981,-0.0617904574985802,-0.387642197622414,-0.0858111685604709,0.167488057322412,-0.0917029906959118,0.12564507111369,-0.0837084125510775,0.214890808644574
"8259",-5.95487402390084,1.00285751476502,-0.848483269988787,0.699624796964633,0.776341177547495,-0.393535591582928,0.736248297986788,0.44335367695336,-0.0735170840576562,0.729829902697252,-0.425760936732846,0.69172218420503,-0.244762369765801,-0.260329909588026,-0.138030855365995,-0.041806975411933
"8260",-0.55384737718535,-0.182586251287683,0.350961456147742,-0.482529640303036,-1.28020480044196,0.728179891472481,-0.844310212298783,-0.100249120152814,-0.0336964257739097,-0.269380923918118,-0.180625128450114,0.0669424389886902,0.0935042239811722,0.341807332354174,0.00755587568694778,-0.0962868516583534
"8262",1.25485023571959,-0.57200331532939,-0.819645957136092,-0.961690665362044,-0.295009591155839,-0.381346347264904,0.483444892129522,-1.32901601088167,0.286621397950297,0.610357258637305,0.271076071693551,0.113737593866395,-0.0436782850645471,0.000787243160267848,-0.0778859933745088,-0.10612705671733
"8263",-0.800599201543158,-1.06024225731029,-0.688975276484113,-0.878753015908977,-0.806541608189828,-0.404337277128202,0.0327958472795071,-0.493961430289922,0.754474743266964,0.650713480081144,0.101597928830592,-0.423092818695591,0.454882347656337,0.0499368175408639,0.00444961872787569,0.030977474418071
"8264",-2.61811069882395,2.0955150141199,1.63978138069886,-0.109403263234067,0.0251445044331592,-0.000136539253224266,0.220514097643288,-0.119923497348864,0.572813022530724,0.0493682964777014,0.139167955040246,-0.396191801199162,-0.489077405043406,-0.234295520761508,-0.0980115507975037,0.112213497524229
"8265",-4.00635974835196,-0.473969732018254,0.371097298117204,-0.933619144385227,-0.174214461170914,-0.0832329257450442,0.897568494236563,0.0835747829697294,0.155986364753167,-0.112269920717689,-0.505287851573001,0.0193833198389188,0.954237741668321,-0.0339975523179972,-0.0800610748781402,-0.0381134728621554
"8267",2.37549601511334,-0.564505480502478,-0.0434289340512845,0.431217151245334,-1.07556966809892,-0.69987138924958,-0.305502385383598,0.65126365501397,-0.777439107112069,-0.0431168200909742,0.144916418770204,0.30290729479173,-0.318689413326788,0.197887222816413,-0.0984442353209217,-0.128277459185826
"8269",2.44858807157696,1.05233409947836,-1.31042226512354,-0.315563224782947,0.704421989862474,0.90414828277514,-0.728407934593809,0.199390251511494,-0.0837224582360364,0.730076380168587,0.356650045484569,0.197866978158756,-0.252492814148073,0.124326300138426,-0.00699390612311239,-0.0151161385990662
"8271",1.72554837880995,-2.01007945860124,0.551025219400848,-0.205357240841985,0.819228386394146,-0.64915630723245,-0.289757262816728,0.0860213039539441,-0.504813262052313,-0.0904234249382642,0.080138000140105,0.0139135326579478,-0.238667615265109,-0.0408678456926296,-0.0800856052877747,0.347551837543783
"8273",4.84382994258346,0.629753466311264,0.393391995018476,0.160995008256202,0.3201940522615,-0.0913086585901135,-0.732195800595256,0.104057553222686,-0.0781884004991725,0.0521513968009068,-0.521246286533834,0.179049639865242,-0.118931475217313,-0.0884681458296406,-0.226673645334975,0.0993646477360537
"8276",2.67431250670709,-1.03788523002937,0.762317490016136,-0.802559611437946,0.222455083143673,-0.454957450876391,0.0135509032551237,0.850722540386652,-0.508683766898585,-0.495619095506723,0.821794479623101,0.00602378109435801,-0.23594715920546,0.13781602902461,-0.0565638634828461,0.0167305221634625
"8277",7.4864354370572,-0.239929691109414,-0.753040387104651,0.835324702910052,0.661381583409164,0.0254094046687859,0.0495933880534267,-0.639600733994892,0.3954569169649,0.119840066665156,-0.268386752483152,0.417012784287243,-0.101611619053792,0.120455329960847,-0.0697121393336962,-0.0169732999775778
"8278",6.8213135954821,-0.105863394001064,-0.060419486770689,0.312106023955235,-0.103663129248596,-0.185623977309611,-1.32963655292182,-0.22362352679274,-0.107021710599385,-0.165151829207408,0.57519474996351,-0.478120118926233,0.0995708197616181,-0.0102848918794238,0.0401811494644419,0.196062345080231
"8282",-1.01082412143479,1.60149711193646,0.611715536611373,0.105918646132578,0.584578225686131,0.303189797234241,-0.104639967081047,-0.206000721726983,-0.262941162083052,-0.362172123345269,0.191720528211255,-0.153148094454788,0.017825452371432,-0.230716762784436,0.0871358260962943,0.0116141003938293
"8283",1.71446060508795,0.522028077483172,0.328703950010731,-0.0674612106936562,-0.290690328204983,-0.53431336114951,-0.447474597567457,-0.506000350295692,-0.588804456865923,0.212492974038366,0.593162141876041,-0.227489698903124,0.315378342688286,0.256081342772147,0.362641982116946,-0.0436389938284171
"8284",2.90831756781631,1.90227806529288,-1.45517359622047,-0.449685322655396,0.904986524992759,0.221009905694465,0.166335288241218,0.754691919143547,0.455088448395752,-0.164048916426659,0.126813825182792,-0.353026979731933,-0.0544833944937551,-0.13562265118602,-0.0203036438557291,0.0182074650831694
"8286",-1.50725653857813,0.695731234857742,-1.01440887710819,-0.421756400434594,-0.532524336490846,-0.123608003754535,-0.806670095276379,0.876941623142841,0.356181590819273,-0.0632766819601965,0.364856942116788,0.0839193954167661,0.267946959725287,0.0264090198935854,-0.128118241176458,-0.0283228002677425
"8287",3.84206038401355,0.49738573565666,-0.46538487934807,-0.430491085175223,0.215394550193982,-0.779896507162942,0.976290902008578,-1.07422405476246,-0.327484936672337,0.22959763246612,0.0694794155224385,0.254194213306435,-0.237274504783422,0.021245053000042,0.0658746484943689,-0.0233655720022165
"8289",-0.0318387663125037,-1.15479897183812,-0.0539988532729681,0.263267129510038,-0.17970703253497,-0.776554748435346,-1.25919386874491,-0.236233837794533,0.297170553864285,-0.673392920199438,0.692559430506571,0.0764882970710446,0.235688688138497,0.00442686752751947,0.0406789294823696,-0.0226853034800127
"8290",-4.26316099003421,-1.05314589251541,-1.48592808409423,-0.0119238776780099,-1.0273175820309,0.233512902280233,-0.541280989747504,-0.710299691631684,1.40596711640278,0.156577299155849,-0.202553247222734,-0.0566204883314825,0.0960190749841756,0.410212134663057,-0.0217137739671309,-0.0456590139842754
"8291",-4.30383230186717,-1.1142097375,-0.641502532152413,-0.380776682441656,-0.469191515375644,-1.86734500406331,-1.6964405168198,-0.659812689574931,0.345603374906227,0.59465811911822,-0.062864163700253,0.258449623105611,-0.143216150367794,-0.537212654212043,-0.0566589332174075,-0.0289275352208399
"8294",9.52602175338284,-1.99251487259518,0.354454203221844,0.741900698017411,-0.0617353810664759,0.0813568620597067,0.141658752018721,-0.72660564001723,0.19907876519114,0.236312303776321,0.745627364162588,0.130468453671954,0.0468246564225413,0.132306789298378,-0.0454560643595553,0.0533413907312566
"8296",6.65924506054283,0.503499242339155,-0.187901949475815,0.294295444745721,-0.405270775432047,-0.388275843531713,-0.578633400690238,0.0501250959290275,-0.0639062510571642,0.164861781554057,0.206746620183406,0.168374106346358,-0.146024334217434,0.0529286397576698,0.0215555497122289,0.0362973676179063
"8297",-6.18544247553679,1.54725341296981,0.305891458867535,0.394653114611498,0.239630190147391,0.0912493009395822,-0.25390022011201,0.135132793831542,-0.38697340329671,0.169919475893127,-0.0868683259711721,0.0770118888941159,0.091208608521493,-0.156336915551932,-0.262560739436344,0.0331409550996627
"8298",2.35144341034401,0.470747490952408,-0.113647646437502,-0.818295908584918,0.572990793597289,-0.0933291976858268,-0.207422749504743,-0.388147068764495,0.323145043009592,0.200243800011005,-0.000179620847858969,-0.0301264326346379,-0.045939484953106,-0.117021545002559,-0.0723329744326891,0.0814587129711267
"8299",1.93449652094689,-0.420129119484598,-1.37614971370685,1.06602013135331,0.0791148096338405,0.467425633639327,-0.654481029389483,0.520298614939003,-0.102420178738004,0.526843131154865,0.161883475518818,-0.383523373511151,-0.437796684698738,-0.194592900280789,-0.157466844980501,0.415714679502059
"8300",1.42588194882334,-2.4040366611354,0.011712238373977,-0.670214068574872,1.23795730488375,0.253346335058405,0.536422143621216,-0.896691461945204,0.14993464980325,-0.044414690993729,0.115338011789399,-0.266342265863094,-0.92749314379845,-0.0758933350171547,0.107514934838947,-0.201886036992046
"8301",0.805223340904964,-0.104261809687611,-0.617476762943106,-0.610345430625054,0.401803111414237,0.239862857978781,0.459789750161809,-0.0788288259258841,0.564789357334147,0.0239362213317824,0.360012824840587,-0.372836055943879,0.317275578786177,-0.0309163353952525,0.0931014201422928,-0.0785413547099208
"8303",0.00276665624767214,-0.552633838866133,-0.247271500436873,-0.747564240962899,0.442774803976246,1.04936104187137,-0.0547413716372398,-0.183527928760203,-0.0244168598675206,-0.311681732789464,0.312016465700952,0.254857603414324,-0.237416100853631,-0.0762183539442483,-0.199064303305635,0.0129014706385369
"8305",4.7884000846782,0.755985192660641,-0.609390212121837,0.558314787616066,0.0537216087082443,1.01761009440669,-0.42180891733502,0.0854941694973856,-0.292203575154583,0.553322706033774,-0.62345208551558,-0.0158469746281588,0.00560062803286543,0.454908590846649,0.0732843861246184,0.13902826110797
"8306",4.62975535628993,0.258953422436537,0.315490509209772,-0.440347966899159,-0.504054013145574,0.600933723272391,-0.56935015688675,0.452504725396654,0.143845762968427,0.296446855829685,-0.991676262649406,-0.0288628882773238,-0.16983678547756,-0.00324397728320736,-0.159751254338809,-0.116176427568066
"8307",4.0912422783098,0.609424637048761,-0.339595268641168,0.26503090494038,0.886650372888203,0.415979777284035,-0.274271748790302,0.473890021781912,0.120110857477844,-0.230390556741989,-0.17991056332439,0.0677167684578141,0.104479614427861,-0.133209471267338,-0.093773059224121,0.09008520120902
"8308",5.28303508470417,0.315264692408693,-0.156130015515743,-0.332462423444265,0.895928095378824,0.130257267659084,0.433590339635412,-0.158877370453884,0.220863571270546,-0.139345933932104,0.0208932825537599,-0.0499115609263211,0.216131647705607,-0.12044475710637,-0.271037773969133,-0.0236620719421214
"8309",2.56521113221331,0.504479128346036,0.0221145686285639,0.175010625775067,1.12373620413327,0.175165144774664,0.0130155351515469,-0.0650282176515588,0.106044301520156,-0.523264710468625,0.129985167007732,-0.119914149315829,-0.116391593286367,0.301582957922486,0.153456178529371,-0.0117699928638961
"8310",-0.400637894338235,0.4475848329269,0.668564721996414,-0.639218357998868,-0.888066093956802,0.194095099349621,0.878906090983118,0.886916071070635,0.413304382299966,-0.124440232808943,0.695254683767876,0.22652472988854,-0.123354756942385,-0.211265065046984,0.337521132073993,0.0710297341314887
"8313",-1.4089455709708,0.0059427874179576,0.944994962959624,-0.463751423092268,-0.417160707480153,1.65833994043153,-0.13629515099037,0.166871376922901,-0.00961895131680197,-0.372027616101833,0.388585115349756,-0.430613662317758,-0.286485092680178,-0.0730137073681246,-0.108258637475005,0.088045005961737
"8315",-3.6799884774468,0.658427080339683,-1.72356225278937,-2.28708970502348,0.0337351263335178,0.290156267401867,1.11489609416189,-0.162793269244204,0.0833673435891099,-0.088956624324555,0.0038918639738077,0.326210908397443,-0.331902923381442,0.106408025506629,0.172899231863345,0.201760309721494
"8316",-1.8371250174244,-0.252448827048274,-1.46520446905065,-1.19622034706014,0.276202403457296,0.0700482504754643,1.34113001116607,0.181606882315073,0.231108448129318,-0.159464610222731,-0.264787459925828,-0.312591674230432,0.36793860588576,0.329563745945942,0.0811763942475355,0.182272781230982
"8320",-1.8674126466539,-0.516143509469692,-1.02752329002813,-0.802387965266168,0.161378394744296,0.0314816130732918,0.131544353654442,0.458966696502459,-0.785275812495155,-0.545035401909267,0.654752715827913,-0.154578086417942,-0.1854409950717,-0.0297817326116161,0.0448770218991702,-0.0887593194299973
"8323",1.7259772195884,-0.430079504767077,-1.06476511212916,-1.08528026742308,0.338081307730313,-0.361411416994492,-0.36192397898383,-1.10384103010274,-0.974988565032586,0.0140343383892668,-0.657132092852927,-0.141453962209902,0.421757460396738,-0.245522930486692,0.226911299027624,0.198232899269915
"8325",0.569114694139725,1.47571169861288,0.894158741112396,-0.455555723270245,0.254163771592432,0.217916485175149,0.594405589279631,0.133480556451255,0.211708577915991,0.154080112853334,-0.289711405849699,0.562072111131301,0.127607432860505,0.109396007507278,-0.0617635429010979,0.0109247090265262
"8328",0.762562521161278,-0.233076916540366,0.700631927391173,-0.614232720046696,0.263925680047798,-0.43736714411184,-0.591218266790773,-0.254652391261633,-0.145859495370319,-0.415182848302088,-0.0432314417349764,0.0768345416804314,0.0275848355741719,0.153284591270634,0.179342839406614,-0.148380398264309
"8330",-2.45179576862019,-3.44124801328588,-0.349539698419467,0.919567019580254,0.0723509855444945,0.244553197379739,-0.847244010736627,0.156585585442983,0.751498454596213,-0.931484295243997,-0.750768735031516,0.531172184162492,-0.0882634585504056,0.142097089357803,0.107961793376758,-0.443424424495887
"8333",0.144194881464967,-2.14659665539786,-0.65959518145304,-0.805641246504087,1.00687610172956,-0.444050185783155,-0.258222214952222,-0.494190541602945,-0.413886977274411,1.46147061969762,-0.431295711097077,-0.378802017412612,-0.0629073030337989,0.296267883635597,-0.06519198889164,0.208012945737671
"8336",-0.289811392795342,0.435637422933677,-1.69105771802777,-0.36156777374729,0.0374318016805262,0.0952500697003651,-0.142426992132352,0.220599774756518,-0.279894001654396,-0.138275195550311,0.0681589298986472,0.111410602427147,-0.0154022870651147,-0.0115522893559355,0.0666211134436778,-0.0136354362119907
"8342",-1.79567782209924,0.286655066749018,0.00889391662396766,-1.00173455486696,-0.441108337225639,-0.399932842734469,0.76220156559363,0.0153571135193244,0.557822875693988,0.122694586531906,0.493114222753285,0.165595206423553,0.701544197746431,0.030816278324438,0.242499521557553,0.0617047000598594
"8353",-5.25787155024917,-0.427535478660895,2.77213584252861,-0.403363473599274,-0.120186399459129,0.601188838066679,0.704975882060131,-0.749899823618367,-0.492467663118006,-0.480424647003725,-0.233310582497821,0.174869298490763,-0.612506678492085,0.290472069922955,-0.124521593761625,0.471600261962768
"8357",-3.94294850569974,-0.569940280487307,1.08854611557564,0.323796013870259,1.2706535553979,-1.97051756549661,0.861338622790968,0.0232608280567234,-0.578981037655521,-0.0374144522372188,-0.123275450424446,-0.195252662176805,-0.473592037081039,-0.400565185307685,0.403158386770528,-0.122352882923018
"8358",-2.61996091875537,-0.376521817691303,1.02476563925762,0.846084653813055,-0.513169603597901,-0.549929120591619,0.566998142680208,0.0484916949580732,-0.251096943851668,0.54663425542721,-0.256010915822275,0.0877462231016017,0.0759728152697516,0.0475459653994197,0.0913607454641186,0.189443189431232
"8372",-2.48465526962839,0.493509218692153,-0.316758811554893,0.412571947266122,-0.00291968321372532,-0.166748274823816,-0.152677531097941,-0.323981292263397,0.542197941138772,-0.142057522118117,0.272845094027422,0.00545238533054809,0.699988229255777,0.0201862313129705,-0.0528863418148542,0.0781512416711218
"8373",-3.23877974545059,0.567356160418639,0.0939737479016263,0.659903018846177,-0.0508434905049875,0.0427049459572707,0.109597844743083,0.114974901021718,-0.16684851827082,-0.0229289508577868,-0.139155423588359,-0.619454539229219,0.824444494333205,0.0236063278915998,-0.0571484677101439,0.0283464724814556
"8375",-3.21560216624501,-1.35905342721936,0.095465015626354,0.351308834521933,0.30878283373044,0.373924941174049,-1.23154148051463,0.281891699698374,0.456843359540643,-0.507784029834006,0.232883433116965,-0.104612914922584,-0.00255800629815852,0.0729168584982519,0.0741417882081041,-0.0583559390853513
"8378",-2.55042858387491,0.514536373270664,-2.10840772876427,0.564095773310338,-0.828976381450609,-0.251136919686534,-0.0846594327561551,0.710414984917836,-0.59164521503473,-0.281064976238652,0.2129281865606,0.4170507005486,-0.222002145910845,-0.14098398628917,0.206903099545842,0.0443616948015907
"8384",1.62523747400817,0.66332980258502,0.0119812653154253,0.314919906246748,-0.34123716919824,-0.498523314269953,0.666012207504315,-0.145375630231187,-0.125772314688523,-0.294981476276425,0.0806810360476888,-0.25505717783916,0.123365827913308,0.0201603521904089,-0.0413148815629325,-0.014551207268801
"8385",2.08219701718465,0.415452522962653,0.455131234678988,-0.129556539762733,-0.837343691087148,0.182706679889827,0.75327717071571,-0.237287564381047,0.372980351547089,-0.225183155162525,0.516150525451035,-0.178380914277982,-0.118300933933243,0.255959513668568,-0.155117076790721,-0.134396674116268
"8386",-5.16295810977975,1.64970233687947,-1.75295255090135,0.362794499322317,0.0202507838632026,0.130094547793815,-0.257174647035045,-0.0268850122214268,0.0437101964169999,-0.447673352434719,0.367488568594351,-0.12948848526258,-0.395721516032188,0.473244436250382,0.106252059075507,0.129967649457207
"8387",3.54816658088984,-0.347357489808833,1.08602046814278,0.287710054595376,-0.502573000005738,0.470610532365623,0.297856741895646,-0.59752984081538,0.667197573572067,0.330001515038637,-0.393382617179226,0.293577706101924,0.120345697300126,0.206488191051047,-0.0298079180038199,-0.0987510442911456
"8390",-0.50622812044743,0.396520710558502,0.174127024728276,0.739672479273817,0.281747678321655,-0.00799475079275223,0.637202532596732,-0.270562099711358,-0.289763037935388,0.752118652519577,0.637183604214553,0.225717413108769,0.33315914352865,-0.00294072338871393,0.304408439150476,0.000969638859552964
"8391",-1.12426761789014,-0.24820002934123,-0.239725479173396,1.00158146693171,0.660061425984509,-0.573425129919745,0.313624661513338,0.136073862368626,0.204164392333569,0.00264654434065342,0.537985614220368,-0.212956780463577,0.182106243175176,-0.0325688830352037,0.187464473924555,0.178928055619116
"8392",-3.66205057118666,-1.22126264381929,0.504022713553892,0.208141415369538,0.810075769839681,-0.0374110491312616,-0.64860374315536,0.76834352825775,-0.0661500629085033,0.216563418225271,0.456575214168209,-0.445530983994476,-0.115855931519929,0.100998626921679,-0.215476187299915,-0.0235451384012304
"8397",-2.20177249938162,-0.851165145258753,2.52823529302308,-0.738767878726385,-0.766750436487714,1.44495568307274,-0.264400926128791,0.510550911007403,-0.193362456871415,1.11395183659433,0.0568347630576033,0.941706909084061,0.0989688083554421,-0.3352312235799,-0.448543775577704,-0.23563016438812
"8398",-1.5662228264739,-1.60506484450966,2.33647256792995,-0.260576357226707,0.41110034239036,0.0455199215984112,-0.196025073776595,0.0644647442529237,-0.198654529328505,-0.0610185159787057,-0.14918287685774,0.416971274053156,0.093127551623308,0.1244392902957,-0.144137567168379,0.259150282259966
"8399",4.85648262233967,-0.189632319692322,1.42822883791024,0.321659890817323,-1.27920820984439,-1.02854291336437,-0.278717777268014,1.12373511959651,0.753855860796141,0.293467860277863,-0.0922320366257262,0.376762534869016,-0.133056152744416,-0.156236663396015,-0.0509309786547917,-0.0783379009137852
"8406",-1.26817037731302,-0.308493593559875,-0.580159616661725,-0.555888626413019,-0.281415716833581,0.0714525686734479,-0.109877917737557,0.0423761903200542,0.0665113492744227,0.106590588956622,0.343308953192739,-0.233700359242655,-0.02033335125588,-0.241229364696752,0.145080664742856,-0.33498347089031
"8407",-2.09390375253927,1.95799246901866,0.319217830167444,-0.211266449993338,-0.140835708864972,0.11711614697702,0.373029466899702,0.231783600847363,-0.310763774314606,-0.132646751710409,0.0899734661282831,0.491847073767613,-0.406814410186573,-0.169737788676754,0.232463225466391,0.319641102123903
"8408",0.330167875679077,-0.301273956131778,2.74935807586522,-0.314407183821668,-0.524583759912257,-0.0956629480184481,0.259434871295582,0.144856504036211,-0.335951025980143,-0.413752266113755,-0.358463797057831,-0.378659882296884,0.256582987672423,-0.0150258206818762,-0.133165831049387,0.0367802468211793
"8409",-6.61457086337082,1.39782315070908,2.01679017019432,-0.627361548652288,0.099153916957874,-0.320577349510083,-0.260402644386126,-0.298897974405209,0.360492848164729,0.176739035254667,-0.120036675252358,-0.0416434754895289,-0.460045719404103,-0.265802416165271,-0.0119437424079884,0.122564493998212
"8410",-3.60801079188618,-0.57994372629905,-0.427822255088485,0.262711548154237,0.271435049384123,0.451301642555371,-0.38401907009424,-0.387504961734029,-0.632966735583546,0.191800963108826,-0.234329413479343,-0.264131434968158,-0.117962790260684,-0.265245816578686,0.416222915725842,-0.251087677300262
"8411",-7.15932933005727,0.56487378819414,0.665635794313641,0.282172548694274,1.30611435784319,-0.206026735861045,-0.155535525365747,0.225324825059142,-0.0376379700508341,0.320131773874926,0.405441574541415,0.761405213955541,-0.14840371864154,0.800896477116931,0.0363793949232714,-0.0603610654388973
"8414",3.97894776320179,-0.203955434137263,0.273967003195518,-0.0856655565871712,0.732228380118342,-0.265795485333117,-0.165660468710122,-0.196908168512579,-0.208602138951891,0.447640090372611,-0.476732926733381,-0.389193003687818,0.511545268765227,0.259749161442116,0.139445778726067,0.0625349825812017
"8416",-3.97490594941886,0.573234102404445,0.475076995678418,0.69832905398,0.0576708048165884,-0.214788888181317,0.645854019897371,0.259452862356006,0.446768550455659,0.105908748633287,-0.105281970837699,-0.39889008322724,-0.529945993700404,-0.0640662022461359,-0.304959417336057,-0.0663109234106837
"8417",1.76851209214345,-0.919806671539499,1.41301842881455,0.171753469955054,0.193804481264964,0.545871325209458,0.799169312925101,0.173153370130263,0.366623237971583,-0.126206420352336,0.133487624364911,-0.465236845429324,0.263130115373705,0.0647099625168007,0.015058862080582,0.189619884105741
"8418",-0.462220102905103,0.261520668147349,-0.13365243071348,-0.368803584188357,-0.430463007068662,0.0536929640739923,0.325544064606638,-0.50620132529831,-0.218229316251982,0.0982116944281034,0.202770221132336,-0.0510612693664002,0.156363311540047,-0.81263021078664,-0.0796403750930188,0.0890638410902936
"8419",-0.967451908640073,-1.37044331374401,-0.578150057301653,0.232673201975515,-0.356560572475378,0.95948277912005,-0.177240050866464,-0.457605782836668,0.275065599494223,-0.105562321413298,-0.036862329563667,-0.448712148333978,0.0027796030686805,0.16707248364983,0.0367857661870493,0.243901211087264
"8423",-2.57329444041014,-2.3691841107333,-0.364650646971898,0.312360006967686,1.7070494780517,0.680860106425397,0.632212151201381,-0.318323107795929,0.331403245798323,-0.201116811483505,0.787342302733926,0.04181514936517,0.662878932862246,-0.725051653226793,0.307098315943748,-0.0580714153598487
"8425",-3.13877548845832,2.17315125119242,2.06790113513483,0.337101945424313,-0.139799497304576,-0.601344662585015,-0.346809697408735,-0.318981573245046,0.840560962445184,-0.430107610564946,0.114293246992491,-0.439790641817038,-0.0285194460192155,0.321555980816253,0.0776561249837486,-0.0254651028207059
"8426",-4.48700935253777,0.793558909983569,2.37453521280662,-0.401929086873115,0.484238968599797,-1.04085888657681,-0.677892808488527,0.159190414248853,0.275346999506032,0.0288317603615748,-0.48083891500027,-0.422614527056623,0.416021247317546,0.129977836707161,0.227127500629226,-0.0441934173949488
