"Tract","Dim.1","Dim.2","Dim.3","Dim.4","Dim.5","Dim.6","Dim.7","Dim.8","Dim.9","Dim.10","Dim.11","Dim.12","Dim.13","Dim.14","Dim.15","Dim.16"
"AF_left",-0.845810253847422,0.0235295439399168,-0.312940452087485,0.118041821722659,-0.213910381427077,0.116589187205075,-0.149717159757466,0.146902082306471,-0.18429408981103,0.132790016192656,-0.00336887811196521,-0.129799206381121,0.00216697143676161,-0.00650087229503672,-0.0122349587281427,0.0136492738074926
"AF_right",-0.825348477140965,-0.0229620981658092,-0.295216509314015,-0.0267086806545487,-0.145106723286906,-0.174695556202557,-0.375031605860226,-0.0101094674384564,0.14504002917926,-0.0818881349261203,-0.017058217776078,0.0982709724223061,-0.0067752844673021,0.0170468235445902,0.00635596283423178,0.00370764783104609
"ATR_left",-0.833688330792055,0.32896061935611,0.327274145236128,-0.0457614164028842,-0.0339658474912059,0.0180178060939306,-0.0426801741950606,-0.0600546118020737,0.0303340165263371,0.053313806588482,-0.256250864554202,-0.0341380018023752,-0.0908566980320452,0.0409024467126011,-0.00841052229114773,0.00697287240189314
"ATR_right",-0.760932951223547,0.368542184047488,0.386529351286493,-0.110911106320135,0.0459725522724685,0.0710728141441918,-0.214821274928572,-0.104694838434737,-0.158496057446374,-0.110346191681476,0.138778249213235,-0.0175167439774675,0.0466581326771643,-0.0116169301155663,-0.000472439141116897,-0.00134199519419625
"CC_genu",-0.846287444697251,-0.138856413358629,-0.135439972071266,0.0517988652917752,-0.286900713892079,-0.142160716316361,0.212916985009898,-0.226534668272916,-0.179900164564519,-0.0714513124563743,-0.00898605305576453,0.0601489114335494,-0.0556094747574274,0.000151972116014707,0.00273926863282635,-0.00693695012208464
"CC_splenium",-0.831656242045862,-0.4180282344778,0.0487545014246005,0.0513727015428749,0.0639512362368925,0.0233646839523495,-0.0486576686511171,-0.264378537684914,0.138869829840995,0.0858361852147084,0.0425129164152939,-0.138462496011484,0.0495794078728902,0.00245634076504506,-0.0395815025734762,0.00470611900135784
"CCG_left",-0.813264853605461,0.221239223192236,-0.324367763627803,-0.272246875275589,0.18540998212074,0.154229401384919,0.0639117425822053,-0.0475704223860546,0.0562201769598198,0.0419007949204819,0.0993072276235203,0.00677721092113077,-0.174986262515934,-0.0173319517826072,0.000954262921035689,-0.00798191628642099
"CCG_right",-0.834217634012976,0.148911783199998,-0.350584188510479,-0.22998727979431,0.182689906849746,0.0659941574128942,0.108769125270593,-0.0280809376349614,-0.0331595125828629,-0.0744527170434246,-0.125964700675061,0.000231127302147875,0.182173398374878,-0.00600758933439781,-0.00337518120468693,0.00285580779509019
"CST_left",-0.832296736117017,0.264898003933256,-0.0219689848380508,0.374695627269007,0.176801639197712,0.0105424870699544,0.0310317126294221,-0.0509968474032459,-0.00745459229936432,0.170786822974459,0.0467099600196512,0.154732500098804,0.0504151390063431,0.0575441868045656,0.00697194241850344,0.00698766229650678
"CST_right",-0.824716854737841,0.20409983240114,-0.0697620321334745,0.419244008594177,0.14901408795206,-0.0795345001676526,0.0833928363752386,0.0763622776684666,0.0653573382605004,-0.189266856002661,-0.000474438583994277,-0.103046902422555,-0.0444245050918623,-0.0573002874254814,-0.015918416652805,-0.00373109959720039
"IFOF_left",-0.932647189617415,-0.199075225760982,0.112745634018535,0.0626832895742767,-0.0979650026064848,0.208662103766331,0.00014859786960209,0.042002964856432,0.0546969726895193,-0.0028856409947197,-0.0224896627655459,0.01929895247282,0.0233601203010689,-0.0323476842348503,0.0699551285136429,-0.0929091321588764
"IFOF_right",-0.889656144900263,-0.29860402722727,0.101757663053824,-0.0707639691446481,0.214170764272164,-0.186212519392602,-0.00658216689800118,0.0498614888068277,-0.0612790898791754,0.0325655256036455,-0.00527495173387908,-0.038198514418596,-0.0220350924346297,-0.0211579964565012,0.106737652840183,0.0477805528502515
"ILF_left",-0.84201131630882,-0.358604495671483,0.139002121610693,0.0364237153008568,-0.0708227186311582,0.316935858263433,0.04710043794141,0.0850410388790603,0.0314659104089774,-0.106703310091382,-0.00176997389581158,0.0939409714297059,-0.0170905675846048,0.0181869946250355,-0.0231038994806913,0.0670557491939744
"ILF_right",-0.843888044769883,-0.370897513727745,0.11958618055815,-0.0964075697715305,0.231764299923275,-0.155032453450049,-0.0357755356830009,0.143790156927583,-0.115917433295498,0.0157061574843276,-0.0176791793546744,0.0544468659283419,-0.0312014811155473,0.0159236314131011,-0.0821070191287806,-0.0453681741175032
"UNC_left",-0.891269658622216,0.178495867660053,0.176925186095964,-0.127103509693079,-0.195070423471719,-0.121581950349273,0.113931561264655,0.0818041056460764,0.100048515559538,0.102553099363728,0.039056752108779,0.0434828888902068,0.0471323387109799,-0.163328233935039,-0.0265559112208144,0.0163408426844411
"UNC_right",-0.904656497239031,0.13680507880594,0.0842335316739567,-0.13009696261564,-0.166755094392982,-0.113779303361078,0.168987584554276,0.129993535484976,0.0974343516899477,-0.0168465864710261,0.0998283870691986,-0.0692009971869349,0.0346823867493321,0.163904733519038,0.00513668310045842,-0.00515849978058697
